0,long_blink,
127,long_blink,
138,long_blink,
148,long_blink,
154,long_blink,
162,long_blink,
170,long_blink,
370,long_blink,
377,long_blink,
412,long_blink,
464,long_blink,
1569,long_blink,
1575,long_blink,
1670,long_blink,
1689,long_blink,
2274,long_blink,
2491,long_blink,
2503,long_blink,
2577,long_blink,
2863,long_blink,
4232,long_blink,
4238,long_blink,
4878,long_blink,
4942,long_blink,
4971,long_blink,
4980,long_blink,
5352,long_blink,
5813,long_blink,
