20,short_blink,
1146,short_blink,
1497,short_blink,
1509,short_blink,
1518,short_blink,
1519,short_blink,
2145,short_blink,
2158,short_blink,
2211,short_blink,
2214,short_blink,
2219,short_blink,
2224,short_blink,
2226,short_blink,
2228,short_blink,
2264,short_blink,
2268,short_blink,
2270,short_blink,
2270,short_blink,
2273,short_blink,
2273,short_blink,
2280,short_blink,
2395,short_blink,
2816,short_blink,
2831,short_blink,
2833,short_blink,
2835,short_blink,
2860,short_blink,
3377,short_blink,
3385,short_blink,
3392,short_blink,
3394,short_blink,
3435,short_blink,
3441,short_blink,
3445,short_blink,
3448,short_blink,
3466,short_blink,
3469,short_blink,
3472,short_blink,
3759,short_blink,
3777,short_blink,
3779,short_blink,
3781,short_blink,
3859,short_blink,
3900,short_blink,
3988,short_blink,
3990,short_blink,
3993,short_blink,
3998,short_blink,
4005,short_blink,
4009,short_blink,
4013,short_blink,
4017,short_blink,
4077,short_blink,
4080,short_blink,
4082,short_blink,
4087,short_blink,
4091,short_blink,
4187,short_blink,
4212,short_blink,
4224,short_blink,
4462,short_blink,
4491,short_blink,
4518,short_blink,
4532,short_blink,
4536,short_blink,
4557,short_blink,
4562,short_blink,
4582,short_blink,
4594,short_blink,
4682,short_blink,
4709,short_blink,
4742,short_blink,
4754,short_blink,
4778,short_blink,
4811,short_blink,
4823,short_blink,
4827,short_blink,
4828,short_blink,
5043,short_blink,
5054,short_blink,
5107,short_blink,
5136,short_blink,
5160,short_blink,
5182,short_blink,
5219,short_blink,
