0,long_blink,
586,long_blink,
612,long_blink,
625,long_blink,
645,long_blink,
1391,long_blink,
1400,long_blink,
2679,long_blink,
2687,long_blink,
3359,long_blink,
3461,long_blink,
3610,long_blink,
4086,long_blink,
4138,long_blink,
4152,long_blink,
4177,long_blink,
4520,long_blink,
4551,long_blink,
4589,long_blink,
4593,long_blink,
4598,long_blink,
4606,long_blink,
4617,long_blink,
4631,long_blink,
4644,long_blink,
4654,long_blink,
4709,long_blink,
4729,long_blink,
4740,long_blink,
4749,long_blink,
4820,long_blink,
4829,long_blink,
4838,long_blink,
4853,long_blink,
4971,long_blink,
4978,long_blink,
4997,long_blink,
