0,long_blink,
43,long_blink,
586,long_blink,
593,long_blink,
671,long_blink,
687,long_blink,
855,long_blink,
883,long_blink,
891,long_blink,
923,long_blink,
931,long_blink,
946,long_blink,
953,long_blink,
980,long_blink,
987,long_blink,
1145,long_blink,
1154,long_blink,
1574,long_blink,
1800,long_blink,
1807,long_blink,
1843,long_blink,
2072,long_blink,
2246,long_blink,
2274,long_blink,
2282,long_blink,
2298,long_blink,
2305,long_blink,
2316,long_blink,
2326,long_blink,
2412,long_blink,
2417,long_blink,
2505,long_blink,
2519,long_blink,
2531,long_blink,
2544,long_blink,
2551,long_blink,
2558,long_blink,
2613,long_blink,
2623,long_blink,
2642,long_blink,
2878,long_blink,
2884,long_blink,
3649,long_blink,
4747,long_blink,
4915,long_blink,
5027,long_blink,
5816,long_blink,
5838,long_blink,
5854,long_blink,
5865,long_blink,
5874,long_blink,
