54,long_blink,
1894,long_blink,
1978,long_blink,
2026,long_blink,
2067,long_blink,
2103,long_blink,
2112,long_blink,
2146,long_blink,
2150,long_blink,
2156,long_blink,
2166,long_blink,
2176,long_blink,
2187,long_blink,
2206,long_blink,
2213,long_blink,
2244,long_blink,
2299,long_blink,
2306,long_blink,
2322,long_blink,
2334,long_blink,
2340,long_blink,
2344,long_blink,
2352,long_blink,
2355,long_blink,
2370,long_blink,
2374,long_blink,
2378,long_blink,
2382,long_blink,
2406,long_blink,
2423,long_blink,
2435,long_blink,
2440,long_blink,
2450,long_blink,
2455,long_blink,
2460,long_blink,
2469,long_blink,
2479,long_blink,
2494,long_blink,
2498,long_blink,
2507,long_blink,
2514,long_blink,
2518,long_blink,
2522,long_blink,
