255,short_blink,
264,short_blink,
323,short_blink,
345,short_blink,
354,short_blink,
406,short_blink,
413,short_blink,
730,short_blink,
1755,short_blink,
1763,short_blink,
1774,short_blink,
1778,short_blink,
1787,short_blink,
1800,short_blink,
1831,short_blink,
1835,short_blink,
1844,short_blink,
1857,short_blink,
1866,short_blink,
1870,short_blink,
1903,short_blink,
1921,short_blink,
1934,short_blink,
1939,short_blink,
1962,short_blink,
1975,short_blink,
2019,short_blink,
2025,short_blink,
2074,short_blink,
2080,short_blink,
2084,short_blink,
2088,short_blink,
2538,short_blink,
2547,short_blink,
2597,short_blink,
2661,short_blink,
2663,short_blink,
2667,short_blink,
2671,short_blink,
