49,long_blink,
72,long_blink,
83,long_blink,
314,long_blink,
358,long_blink,
383,long_blink,
427,long_blink,
509,long_blink,
541,long_blink,
1433,long_blink,
1439,long_blink,
1449,long_blink,
1452,long_blink,
1463,long_blink,
1470,long_blink,
1474,long_blink,
1478,long_blink,
1494,long_blink,
1505,long_blink,
3318,long_blink,
