0sec,528,732
0sec,510,745
0sec,507,750
0sec,501,745
0sec,504,747
0sec,506,747
0sec,499,724
0sec,499,729
0sec,499,730
0sec,500,733
0sec,177,531
0sec,81,470
0sec,56,448
0sec,17,419
0sec,16,419
0sec,21,397
0sec,22,397
0sec,51,371
0sec,48,362
0sec,51,359
0sec,41,361
0sec,56,370
0sec,61,371
0sec,77,372
0sec,77,365
0sec,73,339
0sec,152,321
0sec,257,287
0sec,405,216
0sec,443,203
0sec,610,128
0sec,601,66
0sec,584,97
0sec,580,128
0sec,564,135
0sec,581,247
0sec,583,262
0sec,589,252
0sec,583,246
0sec,589,276
0sec,574,262
0sec,554,246
0sec,553,244
0sec,556,245
0sec,548,237
0sec,546,232
0sec,546,219
0sec,546,211
0sec,555,205
0sec,559,197
0sec,561,216
0sec,561,212
0sec,561,222
0sec,561,227
0sec,562,227
0sec,587,216
0sec,570,221
0sec,566,185
0sec,577,187
0sec,631,226
1sec,862,395
1sec,931,453
1sec,960,484
1sec,959,483
1sec,970,498
1sec,966,531
1sec,970,538
1sec,971,534
1sec,966,529
1sec,967,514
1sec,969,512
1sec,969,507
1sec,965,496
1sec,962,498
1sec,956,499
1sec,949,494
1sec,951,483
1sec,951,481
1sec,944,482
1sec,946,480
1sec,951,471
1sec,945,475
1sec,944,477
1sec,941,476
1sec,932,568
1sec,931,582
1sec,937,634
1sec,919,692
1sec,918,686
1sec,939,734
1sec,931,730
1sec,922,721
1sec,926,729
1sec,921,733
1sec,912,734
1sec,907,738
1sec,906,737
1sec,906,736
1sec,907,736
1sec,918,732
1sec,922,733
1sec,926,731
1sec,926,734
1sec,923,731
1sec,922,732
1sec,921,733
1sec,926,734
1sec,931,739
1sec,941,746
1sec,941,746
1sec,945,748
1sec,946,749
1sec,947,747
1sec,947,746
1sec,941,747
1sec,941,741
1sec,940,743
1sec,939,743
1sec,939,749
1sec,940,750
2sec,946,743
2sec,943,750
2sec,944,751
2sec,941,756
2sec,907,762
2sec,854,767
2sec,833,760
2sec,818,759
2sec,774,757
2sec,520,753
2sec,500,744
2sec,490,753
2sec,497,763
2sec,498,764
2sec,496,760
2sec,493,754
2sec,491,746
2sec,486,741
2sec,486,741
2sec,485,748
2sec,502,765
2sec,504,766
2sec,502,766
2sec,492,762
2sec,486,756
2sec,486,761
2sec,488,763
2sec,483,757
2sec,474,750
2sec,473,750
2sec,470,748
2sec,471,753
2sec,471,752
2sec,471,751
2sec,484,751
2sec,482,751
2sec,486,748
2sec,486,741
2sec,487,741
2sec,485,767
2sec,477,770
2sec,477,767
2sec,472,759
2sec,469,760
2sec,459,746
2sec,466,774
2sec,466,780
2sec,473,770
2sec,473,769
2sec,475,767
2sec,478,772
2sec,480,774
2sec,478,766
2sec,482,762
2sec,482,758
2sec,480,757
2sec,423,751
2sec,358,745
2sec,287,739
3sec,220,733
3sec,159,726
3sec,64,674
3sec,62,653
3sec,60,665
3sec,67,672
3sec,69,674
3sec,68,674
3sec,67,677
3sec,68,679
3sec,69,680
3sec,67,687
3sec,68,691
3sec,69,694
3sec,73,689
3sec,76,666
3sec,79,641
3sec,81,612
3sec,81,548
3sec,80,535
3sec,80,457
3sec,77,451
3sec,72,449
3sec,66,431
3sec,66,429
3sec,70,416
3sec,72,389
3sec,72,388
3sec,71,383
3sec,68,364
3sec,64,371
3sec,75,338
3sec,72,345
3sec,61,374
3sec,71,361
3sec,74,362
3sec,71,372
3sec,71,389
3sec,70,397
3sec,69,405
3sec,69,419
3sec,75,419
3sec,131,422
3sec,100,430
3sec,215,627
3sec,364,936
3sec,426,1098
3sec,431,1140
3sec,446,1255
3sec,463,1381
3sec,459,1377
3sec,459,1374
3sec,452,1375
3sec,447,1373
3sec,449,1379
3sec,455,1373
3sec,457,1380
3sec,466,1380
4sec,465,1377
4sec,466,1374
4sec,463,1371
4sec,463,1369
4sec,462,1369
4sec,462,1368
4sec,462,1366
4sec,463,1365
4sec,453,1357
4sec,449,1354
4sec,450,1352
4sec,451,1352
4sec,455,1346
4sec,457,1347
4sec,457,1347
4sec,465,1345
4sec,474,1341
4sec,495,1334
4sec,507,1332
4sec,511,1329
4sec,503,1331
4sec,508,1332
4sec,507,1334
4sec,508,1325
4sec,510,1323
4sec,512,1319
4sec,513,1316
4sec,507,1321
4sec,515,1317
4sec,514,1318
4sec,516,1320
4sec,517,1321
4sec,515,1324
4sec,512,1320
4sec,515,1280
4sec,515,1115
4sec,504,987
4sec,501,866
4sec,494,844
4sec,489,799
4sec,489,808
4sec,482,812
4sec,509,831
4sec,513,835
4sec,514,833
4sec,522,821
4sec,529,786
4sec,527,774
4sec,521,753
4sec,519,749
4sec,528,740
4sec,524,725
4sec,517,731
4sec,513,746
4sec,513,748
4sec,516,751
4sec,520,754
4sec,520,755
4sec,522,758
4sec,517,762
5sec,518,761
5sec,517,761
5sec,510,759
5sec,495,760
5sec,492,760
5sec,488,763
5sec,481,761
5sec,481,760
5sec,483,761
5sec,484,760
5sec,482,761
5sec,483,760
5sec,489,766
5sec,491,765
5sec,491,763
5sec,493,760
5sec,533,733
5sec,857,668
5sec,750,680
5sec,851,665
5sec,922,656
5sec,937,655
5sec,923,665
5sec,919,662
5sec,910,654
5sec,912,580
5sec,917,545
5sec,917,540
5sec,913,505
5sec,907,491
5sec,912,484
5sec,905,481
5sec,913,475
5sec,918,398
5sec,942,422
5sec,797,460
5sec,718,495
5sec,588,585
5sec,485,655
5sec,485,639
5sec,437,609
5sec,436,583
5sec,439,578
5sec,428,575
5sec,429,604
5sec,431,619
5sec,427,670
5sec,443,676
5sec,455,698
5sec,480,707
5sec,485,723
5sec,490,718
5sec,489,722
6sec,490,724
6sec,491,730
6sec,484,742
6sec,484,743
6sec,477,756
6sec,478,769
6sec,474,776
6sec,472,778
6sec,466,768
6sec,466,763
6sec,467,753
6sec,466,746
6sec,466,747
6sec,466,746
6sec,468,742
6sec,478,730
6sec,480,732
6sec,476,739
6sec,464,740
6sec,466,747
6sec,460,748
6sec,439,751
6sec,433,749
6sec,424,752
6sec,422,752
6sec,422,752
6sec,422,753
6sec,420,753
6sec,416,745
6sec,410,734
6sec,408,705
6sec,405,699
6sec,409,708
6sec,408,706
6sec,409,701
6sec,407,708
6sec,414,714
6sec,423,712
6sec,463,692
6sec,512,657
6sec,516,655
6sec,516,660
6sec,518,638
6sec,518,634
6sec,517,630
6sec,513,627
6sec,514,619
6sec,510,628
6sec,503,627
6sec,505,632
6sec,573,695
6sec,761,828
6sec,776,839
6sec,783,845
6sec,787,849
6sec,771,867
6sec,773,866
6sec,780,853
7sec,783,849
7sec,784,849
7sec,809,843
7sec,815,841
7sec,811,847
7sec,799,871
7sec,786,897
7sec,759,926
7sec,745,939
7sec,746,948
7sec,745,942
7sec,742,954
7sec,738,956
7sec,726,977
7sec,726,980
7sec,741,983
7sec,764,989
7sec,765,989
7sec,774,990
7sec,792,990
7sec,791,998
7sec,798,1005
7sec,795,1023
7sec,797,1028
7sec,802,1021
7sec,800,1019
7sec,802,1024
7sec,807,1028
7sec,807,1029
7sec,807,1026
7sec,805,1012
7sec,765,1018
7sec,738,1043
7sec,504,1222
7sec,410,1270
7sec,356,1304
7sec,339,1312
7sec,307,1353
7sec,302,1355
7sec,299,1363
7sec,296,1375
7sec,297,1390
7sec,307,1384
7sec,314,1372
7sec,315,1373
7sec,315,1374
7sec,318,1371
7sec,318,1375
7sec,310,1388
7sec,307,1392
7sec,303,1391
7sec,303,1390
8sec,303,1388
8sec,314,1381
8sec,313,1377
8sec,286,1404
8sec,294,1385
8sec,350,1075
8sec,372,966
8sec,394,905
8sec,404,868
8sec,410,850
8sec,417,676
8sec,419,588
8sec,419,497
8sec,416,473
8sec,416,473
8sec,416,475
8sec,413,479
8sec,404,486
8sec,405,484
8sec,409,474
8sec,409,474
8sec,401,466
8sec,398,458
8sec,399,460
8sec,404,464
8sec,410,467
8sec,409,467
8sec,409,466
8sec,403,470
8sec,400,472
8sec,400,465
8sec,399,464
8sec,399,463
8sec,400,461
8sec,405,462
8sec,406,458
8sec,405,457
8sec,407,459
8sec,406,460
8sec,406,460
8sec,404,466
8sec,404,464
8sec,408,462
8sec,411,463
8sec,471,321
8sec,474,317
8sec,473,319
8sec,479,303
8sec,470,293
8sec,470,298
8sec,483,262
8sec,487,264
8sec,523,235
8sec,526,229
8sec,540,236
8sec,536,235
8sec,508,229
8sec,503,230
8sec,493,232
8sec,491,232
8sec,496,252
9sec,498,254
9sec,458,241
9sec,485,204
9sec,493,63
9sec,541,76
9sec,560,66
9sec,557,55
9sec,555,39
9sec,626,117
9sec,616,51
9sec,615,44
9sec,620,72
9sec,616,128
9sec,613,101
9sec,454,214
9sec,416,226
9sec,334,277
9sec,243,362
9sec,203,395
9sec,51,534
9sec,52,532
9sec,48,542
9sec,47,563
9sec,49,565
9sec,49,566
9sec,50,567
9sec,56,568
9sec,52,566
9sec,58,567
9sec,58,567
9sec,58,570
9sec,54,573
9sec,103,530
9sec,269,378
9sec,345,331
9sec,399,296
9sec,428,286
9sec,457,281
9sec,544,196
9sec,457,274
9sec,472,257
9sec,501,218
9sec,546,168
9sec,583,197
9sec,593,208
9sec,594,208
9sec,602,211
9sec,604,221
9sec,605,225
9sec,604,232
9sec,605,240
9sec,607,237
9sec,605,224
10sec,602,222
10sec,601,224
10sec,601,222
10sec,603,218
10sec,603,216
10sec,606,217
10sec,610,211
10sec,609,212
10sec,603,215
10sec,605,216
10sec,604,222
10sec,572,244
10sec,583,243
10sec,580,236
10sec,579,231
10sec,560,221
10sec,562,218
10sec,492,276
10sec,502,267
10sec,502,216
10sec,452,31
10sec,463,71
10sec,485,95
10sec,475,63
10sec,459,30
10sec,472,134
10sec,414,10
10sec,420,53
10sec,394,22
10sec,404,5
10sec,413,37
10sec,472,198
10sec,426,80
10sec,448,108
10sec,468,84
10sec,514,172
10sec,584,97
10sec,628,55
10sec,649,95
10sec,802,305
11sec,795,271
11sec,852,364
11sec,942,505
11sec,957,534
11sec,956,541
11sec,932,543
11sec,946,553
11sec,946,564
11sec,927,567
11sec,915,576
11sec,912,587
11sec,904,621
11sec,911,613
11sec,918,603
11sec,921,598
11sec,924,593
11sec,923,594
11sec,923,593
11sec,920,582
11sec,918,578
11sec,916,568
11sec,920,568
11sec,925,564
11sec,932,562
11sec,930,561
11sec,932,559
11sec,933,558
11sec,935,552
11sec,934,550
11sec,929,549
11sec,927,548
11sec,924,547
11sec,917,543
11sec,916,540
11sec,919,540
11sec,920,536
11sec,926,532
11sec,923,533
11sec,926,530
11sec,910,531
11sec,544,534
11sec,170,534
11sec,113,529
11sec,89,527
11sec,34,514
11sec,50,491
11sec,51,490
11sec,46,474
11sec,36,461
11sec,42,472
11sec,38,472
11sec,33,466
11sec,31,460
11sec,32,455
11sec,33,453
11sec,32,451
11sec,33,451
11sec,34,453
11sec,36,458
12sec,36,456
12sec,30,444
12sec,29,441
12sec,28,452
12sec,31,461
12sec,35,464
12sec,32,468
12sec,53,481
12sec,53,481
12sec,39,471
12sec,40,473
12sec,42,478
12sec,46,478
12sec,38,488
12sec,38,491
12sec,42,497
12sec,48,509
12sec,49,511
12sec,48,509
12sec,43,506
12sec,48,502
12sec,41,502
12sec,37,502
12sec,38,524
12sec,37,526
12sec,31,522
12sec,30,520
12sec,32,519
12sec,39,523
12sec,70,531
12sec,202,653
12sec,396,917
12sec,547,1258
12sec,569,1295
12sec,569,1289
12sec,566,1276
12sec,562,1297
12sec,560,1311
12sec,558,1301
12sec,559,1278
12sec,560,1277
12sec,561,1277
12sec,561,1276
12sec,559,1271
12sec,558,1267
12sec,553,1251
12sec,556,1243
12sec,559,1243
12sec,560,1242
12sec,564,1244
12sec,565,1245
12sec,565,1245
12sec,565,1245
12sec,569,1242
12sec,570,1242
12sec,561,1251
12sec,562,1249
12sec,555,1258
13sec,561,1245
13sec,530,1196
13sec,536,1205
13sec,382,969
13sec,358,939
13sec,335,915
13sec,276,838
13sec,268,813
13sec,260,823
13sec,261,800
13sec,259,802
13sec,262,787
13sec,281,750
13sec,285,739
13sec,335,592
13sec,402,397
13sec,411,356
13sec,473,191
13sec,494,137
13sec,512,163
13sec,523,182
13sec,523,201
13sec,524,203
13sec,520,222
13sec,506,218
13sec,507,216
13sec,512,207
13sec,514,198
13sec,514,190
13sec,499,163
13sec,491,162
13sec,478,157
13sec,459,148
13sec,451,159
13sec,461,179
13sec,472,187
13sec,457,154
13sec,465,165
13sec,460,184
13sec,462,171
13sec,457,176
13sec,459,198
13sec,470,216
13sec,441,106
13sec,411,20
13sec,442,106
13sec,409,9
13sec,423,58
13sec,429,87
13sec,467,246
13sec,398,75
13sec,397,72
13sec,467,147
13sec,466,148
13sec,486,115
13sec,537,168
14sec,593,228
14sec,590,218
14sec,589,208
14sec,566,154
14sec,559,130
14sec,576,86
14sec,601,117
14sec,610,110
14sec,679,240
14sec,725,315
14sec,740,350
14sec,755,378
14sec,806,463
14sec,809,461
14sec,809,469
14sec,822,477
14sec,840,473
14sec,842,471
14sec,842,475
14sec,847,475
14sec,785,454
14sec,747,437
14sec,599,351
14sec,621,363
14sec,478,280
14sec,475,281
14sec,519,287
14sec,494,289
14sec,484,292
14sec,482,294
14sec,487,301
14sec,497,298
14sec,512,285
14sec,512,261
14sec,528,251
14sec,536,219
14sec,511,208
14sec,517,204
14sec,485,190
14sec,491,177
14sec,511,184
14sec,519,176
14sec,518,178
14sec,516,170
14sec,501,130
14sec,501,119
14sec,478,82
14sec,478,82
14sec,480,96
14sec,481,99
14sec,505,132
14sec,495,123
14sec,492,121
14sec,510,171
14sec,509,159
14sec,509,150
14sec,511,169
15sec,507,163
15sec,509,168
15sec,495,140
15sec,484,122
15sec,515,165
15sec,491,130
15sec,485,120
15sec,508,151
15sec,510,160
15sec,498,144
15sec,511,174
15sec,516,203
15sec,530,232
15sec,524,224
15sec,511,200
15sec,528,206
15sec,497,168
15sec,494,167
15sec,503,188
15sec,496,180
15sec,507,241
15sec,503,227
15sec,504,241
15sec,515,205
15sec,509,187
15sec,509,181
15sec,517,185
15sec,499,158
15sec,497,164
15sec,476,149
15sec,477,159
15sec,478,164
15sec,490,188
15sec,476,126
15sec,492,169
15sec,486,169
15sec,482,158
15sec,510,221
15sec,499,204
15sec,517,216
15sec,499,184
15sec,483,163
15sec,502,194
15sec,482,177
15sec,482,177
15sec,500,216
15sec,494,218
15sec,509,248
15sec,498,228
15sec,488,195
15sec,497,191
15sec,491,168
15sec,483,161
15sec,470,136
15sec,492,170
15sec,490,168
15sec,520,205
15sec,503,183
15sec,496,167
16sec,504,173
16sec,503,169
16sec,493,134
16sec,482,106
16sec,475,87
16sec,479,105
16sec,474,95
16sec,476,103
16sec,479,103
16sec,483,102
16sec,484,102
16sec,485,102
16sec,485,101
16sec,479,117
16sec,514,186
16sec,505,171
16sec,509,193
16sec,505,192
16sec,504,169
16sec,503,172
16sec,487,134
16sec,485,130
16sec,499,162
16sec,488,142
16sec,527,234
16sec,519,218
16sec,507,171
16sec,486,106
16sec,496,142
16sec,477,135
16sec,482,164
16sec,479,152
16sec,474,122
16sec,470,84
16sec,468,76
16sec,465,52
16sec,469,81
16sec,463,38
16sec,485,150
16sec,477,118
16sec,461,95
16sec,444,67
16sec,442,85
16sec,459,124
16sec,466,136
16sec,447,88
16sec,479,164
16sec,476,154
16sec,474,129
16sec,479,155
16sec,472,135
16sec,478,125
16sec,471,75
16sec,476,86
16sec,493,126
16sec,496,131
16sec,489,108
16sec,501,145
16sec,498,140
16sec,497,132
17sec,524,123
17sec,538,127
17sec,570,104
17sec,573,103
17sec,582,119
17sec,589,117
17sec,589,108
17sec,585,97
17sec,592,84
17sec,591,74
17sec,592,83
17sec,592,80
17sec,591,75
17sec,579,56
17sec,568,37
17sec,573,49
17sec,564,72
17sec,562,96
17sec,537,109
17sec,523,144
17sec,510,146
17sec,480,160
17sec,436,149
17sec,442,164
17sec,428,154
17sec,423,172
17sec,383,257
17sec,351,387
17sec,284,493
17sec,192,614
17sec,186,616
17sec,138,739
17sec,136,724
17sec,130,724
17sec,126,725
17sec,129,732
17sec,122,708
17sec,121,705
17sec,110,688
17sec,109,685
17sec,99,668
17sec,104,674
17sec,85,644
17sec,81,638
17sec,81,637
17sec,72,618
17sec,72,616
17sec,65,617
17sec,65,614
17sec,65,614
17sec,81,610
17sec,82,609
17sec,80,602
17sec,78,601
17sec,80,600
17sec,77,598
17sec,70,588
17sec,69,586
17sec,60,579
17sec,56,578
17sec,56,578
18sec,55,577
18sec,48,571
18sec,45,567
18sec,40,562
18sec,42,560
18sec,46,560
18sec,46,561
18sec,47,562
18sec,47,563
18sec,47,561
18sec,50,556
18sec,52,555
18sec,55,553
18sec,59,555
18sec,57,555
18sec,57,555
18sec,57,556
18sec,56,555
18sec,56,555
18sec,51,549
18sec,50,540
18sec,51,539
18sec,51,539
18sec,54,543
18sec,55,544
18sec,57,544
18sec,56,545
18sec,52,545
18sec,48,544
18sec,40,542
18sec,37,541
18sec,40,549
18sec,43,553
18sec,42,550
18sec,43,546
18sec,44,543
18sec,44,542
18sec,44,536
18sec,44,533
18sec,44,533
18sec,44,530
18sec,43,527
18sec,39,528
18sec,51,533
18sec,38,542
18sec,35,544
18sec,37,542
18sec,49,534
18sec,49,533
18sec,37,540
18sec,37,543
18sec,45,528
18sec,44,540
18sec,44,540
18sec,43,537
18sec,43,534
18sec,39,538
18sec,40,538
18sec,42,537
19sec,42,537
19sec,46,536
19sec,45,535
19sec,50,533
19sec,53,533
19sec,40,528
19sec,37,522
19sec,36,519
19sec,35,517
19sec,33,509
19sec,34,510
19sec,34,513
19sec,35,521
19sec,35,521
19sec,33,520
19sec,25,526
19sec,23,530
19sec,24,530
19sec,33,536
19sec,35,538
19sec,42,538
19sec,42,538
19sec,41,536
19sec,43,534
21sec,410,581
21sec,421,657
21sec,424,638
21sec,422,644
21sec,424,620
21sec,428,619
21sec,435,608
21sec,438,604
21sec,440,614
21sec,440,612
21sec,441,605
21sec,439,599
21sec,434,562
21sec,430,549
21sec,429,549
21sec,424,555
21sec,428,549
21sec,426,563
21sec,423,580
21sec,417,597
21sec,419,603
21sec,228,595
21sec,217,592
21sec,232,587
21sec,168,583
21sec,177,583
21sec,187,582
21sec,192,580
21sec,182,583
21sec,174,586
21sec,157,571
21sec,157,573
21sec,158,573
21sec,161,577
21sec,151,573
21sec,149,573
21sec,143,565
21sec,140,582
21sec,265,615
21sec,336,641
21sec,342,642
21sec,386,651
21sec,456,669
21sec,525,689
21sec,523,689
21sec,518,694
21sec,513,699
21sec,509,708
21sec,509,737
22sec,505,741
22sec,502,756
22sec,502,757
22sec,505,768
22sec,506,764
22sec,504,771
22sec,505,771
22sec,502,770
22sec,501,770
22sec,501,765
22sec,497,746
22sec,497,749
22sec,499,753
22sec,504,758
22sec,496,761
22sec,465,760
22sec,409,719
22sec,326,644
22sec,255,583
22sec,224,553
22sec,126,497
22sec,98,480
22sec,93,454
22sec,92,490
22sec,87,474
22sec,57,468
22sec,52,459
22sec,64,448
22sec,42,456
22sec,53,456
22sec,59,446
22sec,55,446
22sec,58,446
22sec,51,463
22sec,46,461
22sec,154,468
22sec,384,471
22sec,417,470
22sec,476,470
22sec,669,492
22sec,865,484
22sec,859,500
22sec,816,554
22sec,807,579
22sec,819,576
22sec,848,572
22sec,871,563
22sec,886,551
22sec,880,549
22sec,932,513
22sec,938,505
22sec,977,468
22sec,959,472
22sec,703,245
22sec,681,234
22sec,657,228
23sec,683,282
23sec,641,231
23sec,637,241
23sec,632,251
23sec,596,283
23sec,580,301
23sec,584,310
23sec,585,313
23sec,646,218
23sec,681,229
23sec,684,221
23sec,684,210
23sec,699,174
23sec,711,138
23sec,718,132
23sec,714,148
23sec,713,120
23sec,714,206
23sec,708,177
23sec,706,167
23sec,707,185
23sec,704,184
23sec,676,113
23sec,677,129
23sec,665,62
23sec,671,97
23sec,672,82
23sec,698,228
23sec,696,191
23sec,827,420
23sec,861,469
23sec,891,497
23sec,931,543
23sec,924,543
23sec,922,534
23sec,925,531
23sec,933,513
23sec,931,488
23sec,929,477
23sec,931,470
23sec,934,461
23sec,942,449
23sec,949,434
23sec,944,434
23sec,950,431
23sec,949,434
23sec,946,443
23sec,952,459
23sec,948,507
23sec,947,530
24sec,946,531
24sec,909,686
24sec,890,775
24sec,904,774
24sec,907,777
24sec,905,781
24sec,922,772
24sec,914,778
24sec,917,776
24sec,909,785
24sec,908,788
24sec,906,792
24sec,906,792
24sec,912,790
24sec,912,790
24sec,913,790
24sec,915,785
24sec,914,789
24sec,914,786
24sec,914,781
24sec,913,776
24sec,921,761
24sec,923,756
24sec,925,753
24sec,924,746
24sec,924,747
24sec,923,748
24sec,923,749
24sec,925,752
24sec,929,764
24sec,932,765
24sec,932,765
24sec,925,768
24sec,919,767
24sec,914,767
24sec,909,763
24sec,911,762
24sec,913,760
24sec,911,756
24sec,907,761
24sec,912,759
24sec,887,738
24sec,916,646
24sec,911,626
24sec,902,649
24sec,902,634
24sec,919,521
24sec,909,498
24sec,911,501
24sec,918,512
24sec,922,517
24sec,930,521
24sec,941,505
24sec,953,486
24sec,966,455
24sec,976,432
24sec,979,427
24sec,978,430
24sec,975,426
25sec,973,426
25sec,964,430
25sec,960,433
25sec,961,434
25sec,962,437
25sec,964,439
25sec,965,439
25sec,967,439
25sec,968,437
25sec,967,435
25sec,966,434
25sec,965,435
25sec,962,442
25sec,959,445
25sec,957,445
25sec,960,450
25sec,961,451
25sec,962,452
25sec,959,451
25sec,948,455
25sec,946,453
25sec,943,444
25sec,946,439
25sec,945,442
25sec,948,435
25sec,948,436
25sec,951,438
25sec,953,436
25sec,953,435
25sec,952,431
25sec,950,430
25sec,948,435
25sec,950,441
25sec,950,443
25sec,947,443
25sec,932,444
25sec,933,444
25sec,931,441
25sec,931,435
25sec,953,414
25sec,952,415
25sec,952,417
25sec,955,410
25sec,954,408
25sec,945,409
25sec,937,416
25sec,939,422
25sec,937,419
25sec,938,421
25sec,937,422
25sec,948,421
25sec,939,416
25sec,944,401
25sec,943,382
25sec,943,381
25sec,947,394
25sec,948,410
25sec,949,414
25sec,947,407
25sec,946,409
26sec,951,391
26sec,947,409
26sec,944,410
26sec,945,400
26sec,942,407
26sec,940,411
26sec,944,391
26sec,943,396
26sec,942,406
26sec,941,445
26sec,940,450
26sec,940,423
26sec,936,436
26sec,934,450
26sec,936,429
26sec,937,418
26sec,933,426
26sec,940,389
26sec,938,379
26sec,917,384
26sec,893,415
26sec,892,402
26sec,888,401
26sec,886,402
26sec,872,409
26sec,877,400
26sec,878,395
26sec,865,410
26sec,855,436
26sec,857,431
26sec,854,437
26sec,852,441
26sec,845,450
26sec,841,455
26sec,744,690
26sec,814,595
26sec,803,488
26sec,797,523
26sec,767,398
26sec,749,329
26sec,736,291
26sec,729,291
26sec,681,263
26sec,687,252
26sec,684,249
26sec,697,260
26sec,700,248
26sec,704,243
26sec,712,250
26sec,720,263
26sec,726,270
26sec,727,249
26sec,707,210
26sec,698,200
26sec,700,191
27sec,715,162
27sec,713,149
27sec,699,177
27sec,698,182
27sec,698,176
27sec,709,126
27sec,699,183
27sec,739,179
27sec,721,220
27sec,725,212
27sec,724,192
27sec,706,258
27sec,721,240
27sec,704,274
27sec,701,276
27sec,728,245
27sec,729,260
27sec,773,257
27sec,800,310
27sec,832,380
27sec,927,501
27sec,929,535
27sec,900,529
27sec,892,529
27sec,887,528
27sec,901,525
27sec,917,522
27sec,938,538
27sec,930,519
27sec,932,523
27sec,934,527
27sec,935,529
27sec,937,534
27sec,936,540
27sec,933,540
27sec,929,549
27sec,932,549
27sec,930,551
27sec,926,550
27sec,929,549
27sec,933,547
27sec,936,544
27sec,937,540
27sec,938,541
27sec,934,545
27sec,934,545
27sec,932,546
27sec,930,547
27sec,927,547
27sec,929,546
27sec,932,542
27sec,932,544
27sec,932,544
27sec,930,543
27sec,927,542
27sec,761,547
27sec,621,551
27sec,528,555
27sec,435,557
28sec,302,554
28sec,63,450
28sec,22,431
28sec,16,421
28sec,19,435
28sec,7,306
28sec,41,223
28sec,34,237
28sec,40,284
28sec,84,317
28sec,75,347
28sec,81,330
28sec,69,393
28sec,50,408
28sec,53,401
28sec,47,409
28sec,37,441
28sec,49,426
28sec,58,418
28sec,52,436
28sec,51,443
28sec,46,477
28sec,61,470
28sec,49,491
28sec,45,492
28sec,74,498
28sec,67,502
28sec,64,503
28sec,63,504
28sec,56,513
28sec,71,537
28sec,71,537
28sec,70,538
28sec,65,536
28sec,60,535
28sec,60,536
28sec,49,533
28sec,48,531
28sec,50,532
28sec,76,520
28sec,80,519
28sec,60,513
28sec,62,515
28sec,64,518
28sec,52,524
28sec,53,529
28sec,56,533
28sec,60,542
28sec,56,541
28sec,57,544
28sec,57,544
28sec,56,543
28sec,52,537
28sec,49,535
28sec,45,528
28sec,45,531
28sec,51,535
29sec,53,537
29sec,56,539
29sec,61,540
29sec,67,540
29sec,66,541
29sec,63,541
29sec,61,542
29sec,59,543
29sec,56,542
29sec,51,545
29sec,52,547
29sec,58,547
29sec,68,547
29sec,66,547
29sec,68,550
29sec,68,548
29sec,68,549
29sec,68,549
29sec,68,549
29sec,66,548
29sec,66,548
29sec,68,548
29sec,69,543
29sec,68,541
29sec,68,539
29sec,73,538
29sec,74,538
29sec,70,538
29sec,66,539
29sec,69,537
29sec,69,536
29sec,67,538
29sec,63,539
29sec,63,535
29sec,62,536
29sec,61,535
29sec,56,526
29sec,59,530
29sec,52,521
29sec,44,524
29sec,46,524
29sec,51,524
29sec,55,523
29sec,56,522
29sec,64,522
29sec,74,532
29sec,77,532
29sec,78,532
29sec,84,531
29sec,87,533
29sec,89,531
29sec,90,533
29sec,90,532
29sec,88,533
29sec,80,537
29sec,81,536
29sec,81,536
29sec,82,541
29sec,82,553
29sec,84,556
29sec,82,548
30sec,81,547
30sec,82,547
30sec,81,540
30sec,80,540
30sec,82,542
30sec,83,541
30sec,86,547
30sec,86,550
30sec,86,548
30sec,86,545
30sec,88,542
30sec,89,538
30sec,91,534
30sec,92,535
30sec,92,534
30sec,92,534
30sec,81,530
30sec,85,533
30sec,84,538
30sec,83,537
30sec,81,535
30sec,82,536
30sec,83,535
30sec,83,527
30sec,79,521
30sec,78,520
30sec,77,520
30sec,76,520
30sec,76,519
30sec,70,515
30sec,68,505
30sec,66,508
30sec,72,522
30sec,72,530
30sec,73,528
30sec,74,529
30sec,82,531
30sec,80,536
30sec,84,535
30sec,83,536
30sec,82,533
30sec,80,532
30sec,75,532
30sec,75,533
30sec,75,533
30sec,74,533
30sec,72,532
30sec,71,526
30sec,71,526
30sec,73,525
30sec,77,532
30sec,87,535
30sec,88,535
30sec,88,532
30sec,87,533
30sec,85,531
30sec,82,531
30sec,81,530
30sec,80,530
31sec,81,530
31sec,81,530
31sec,88,529
31sec,87,527
31sec,85,523
31sec,78,524
31sec,77,524
31sec,75,523
31sec,76,523
31sec,76,526
31sec,77,528
31sec,76,524
31sec,72,515
31sec,69,517
31sec,69,519
31sec,75,525
31sec,83,533
31sec,79,532
31sec,83,535
31sec,81,537
31sec,81,539
31sec,81,542
31sec,75,533
31sec,75,532
31sec,66,522
31sec,69,528
31sec,69,529
31sec,72,535
31sec,72,535
31sec,68,536
31sec,68,536
31sec,67,537
31sec,63,537
31sec,62,537
31sec,62,536
31sec,63,531
31sec,63,532
31sec,66,530
31sec,63,532
31sec,63,532
31sec,63,532
31sec,63,533
31sec,71,542
31sec,72,541
31sec,73,543
31sec,65,533
31sec,65,531
31sec,66,532
31sec,66,527
31sec,69,527
31sec,73,529
31sec,72,528
31sec,71,527
31sec,68,525
31sec,68,525
31sec,76,527
31sec,77,524
32sec,84,523
32sec,94,522
32sec,89,522
32sec,88,521
32sec,73,518
32sec,74,516
32sec,74,515
32sec,76,513
32sec,65,508
32sec,59,515
32sec,58,517
32sec,57,519
32sec,71,525
32sec,75,526
32sec,73,525
32sec,77,524
32sec,76,531
32sec,70,536
32sec,70,537
32sec,70,541
32sec,67,541
32sec,69,539
32sec,69,539
32sec,64,541
32sec,64,541
32sec,65,541
32sec,64,541
32sec,55,518
32sec,52,514
32sec,55,519
32sec,55,517
32sec,57,520
32sec,73,539
32sec,68,533
32sec,70,533
32sec,76,533
32sec,80,539
32sec,76,541
32sec,75,540
32sec,76,537
32sec,69,537
32sec,57,530
32sec,62,506
32sec,62,503
32sec,62,510
32sec,65,516
32sec,72,516
32sec,69,515
32sec,51,517
32sec,48,523
32sec,52,525
32sec,50,525
32sec,59,527
32sec,55,530
32sec,70,532
32sec,66,536
32sec,64,534
32sec,60,533
32sec,60,534
32sec,63,533
33sec,70,542
33sec,71,538
33sec,65,525
33sec,59,523
33sec,56,517
33sec,55,515
33sec,53,512
33sec,54,513
33sec,60,521
33sec,60,521
33sec,63,521
33sec,75,539
33sec,76,538
33sec,76,538
33sec,66,520
33sec,66,520
33sec,58,515
33sec,56,519
33sec,54,519
33sec,54,519
33sec,53,518
33sec,54,520
33sec,60,523
33sec,60,520
33sec,61,520
33sec,61,518
33sec,60,518
33sec,61,514
33sec,63,509
33sec,65,505
33sec,65,505
33sec,65,505
33sec,68,505
33sec,70,516
33sec,70,517
33sec,73,523
33sec,74,533
33sec,72,539
33sec,71,538
33sec,70,537
33sec,67,539
33sec,69,538
33sec,74,536
33sec,80,535
33sec,82,646
33sec,127,679
33sec,117,627
33sec,112,582
33sec,112,581
33sec,111,578
33sec,110,555
33sec,109,526
33sec,97,520
33sec,104,524
34sec,106,528
34sec,110,539
34sec,108,544
34sec,108,544
34sec,108,545
34sec,109,545
34sec,109,543
34sec,110,545
34sec,112,550
34sec,111,552
34sec,108,552
34sec,104,554
34sec,104,555
34sec,104,560
34sec,102,561
34sec,99,560
34sec,98,558
34sec,94,554
34sec,91,552
34sec,85,547
34sec,76,552
34sec,78,551
34sec,75,552
34sec,72,548
34sec,70,545
34sec,70,544
34sec,67,539
34sec,65,539
34sec,64,540
34sec,67,542
34sec,67,542
34sec,61,548
34sec,61,548
34sec,57,548
34sec,59,548
34sec,62,543
34sec,72,539
34sec,72,538
34sec,70,539
34sec,65,543
34sec,64,543
34sec,63,541
34sec,58,543
34sec,58,544
34sec,53,534
34sec,52,535
34sec,53,541
34sec,56,544
34sec,57,545
34sec,55,547
34sec,56,549
34sec,58,553
34sec,58,552
34sec,59,551
34sec,55,550
34sec,51,550
34sec,48,552
34sec,48,552
34sec,49,550
34sec,48,545
35sec,48,544
35sec,48,545
35sec,50,538
35sec,52,536
35sec,53,533
35sec,54,528
35sec,54,528
35sec,53,525
35sec,49,518
35sec,42,508
35sec,42,506
35sec,43,506
35sec,50,513
35sec,57,515
35sec,70,523
35sec,77,527
35sec,79,528
35sec,86,532
35sec,88,534
35sec,87,531
35sec,90,535
35sec,90,535
35sec,92,532
35sec,92,530
35sec,95,535
35sec,95,535
35sec,98,537
35sec,98,537
35sec,99,536
35sec,94,533
35sec,98,538
35sec,97,539
35sec,101,543
35sec,102,541
35sec,103,540
35sec,99,539
35sec,97,535
35sec,95,531
35sec,95,529
35sec,95,527
35sec,94,526
35sec,91,521
35sec,92,524
35sec,92,527
35sec,90,523
35sec,81,516
35sec,76,518
35sec,76,526
35sec,76,522
35sec,78,519
35sec,78,519
35sec,70,504
35sec,70,501
35sec,69,499
35sec,65,493
35sec,64,493
35sec,66,496
35sec,75,496
35sec,77,495
35sec,86,494
35sec,75,487
36sec,76,488
36sec,77,491
36sec,77,496
36sec,76,501
36sec,80,498
36sec,79,499
36sec,78,500
36sec,72,499
36sec,68,497
36sec,67,497
36sec,63,495
36sec,66,500
36sec,65,499
36sec,66,500
36sec,73,505
36sec,73,509
36sec,73,508
36sec,71,508
36sec,62,512
36sec,63,512
36sec,41,508
36sec,39,511
36sec,35,512
36sec,33,511
36sec,34,512
36sec,45,522
36sec,46,523
36sec,44,522
36sec,39,521
36sec,40,529
36sec,38,523
36sec,373,719
36sec,387,728
36sec,406,740
36sec,409,736
36sec,422,738
36sec,429,724
36sec,438,708
36sec,444,696
36sec,459,709
36sec,455,695
36sec,473,743
36sec,480,766
36sec,484,779
36sec,480,775
36sec,476,764
36sec,474,768
36sec,468,756
36sec,466,755
36sec,466,757
36sec,448,747
36sec,445,752
36sec,89,417
36sec,102,427
36sec,70,390
36sec,49,343
36sec,57,340
37sec,39,314
37sec,47,303
37sec,57,393
37sec,91,374
37sec,78,378
37sec,86,386
37sec,71,385
37sec,62,392
37sec,65,381
37sec,68,354
37sec,57,389
37sec,89,398
37sec,73,431
37sec,67,407
37sec,79,409
37sec,68,419
37sec,32,445
37sec,48,453
37sec,48,455
37sec,42,463
37sec,47,462
37sec,54,441
37sec,55,440
37sec,64,422
37sec,73,494
37sec,72,485
37sec,132,528
37sec,118,519
37sec,100,512
37sec,96,511
37sec,74,518
37sec,67,539
37sec,67,543
37sec,70,560
37sec,69,569
37sec,73,569
37sec,74,568
37sec,75,567
37sec,72,560
37sec,71,554
37sec,70,549
37sec,70,548
37sec,69,549
37sec,63,552
37sec,62,554
37sec,60,554
37sec,64,554
37sec,65,552
37sec,67,551
37sec,70,553
37sec,71,551
37sec,76,552
37sec,76,551
37sec,82,555
37sec,84,561
37sec,97,533
37sec,100,535
38sec,497,362
38sec,504,350
38sec,499,248
38sec,489,212
38sec,503,239
38sec,503,238
38sec,527,229
38sec,554,214
38sec,568,211
38sec,585,192
38sec,598,174
38sec,604,167
38sec,634,175
38sec,650,166
38sec,638,160
38sec,645,162
38sec,665,156
38sec,693,176
38sec,705,170
38sec,672,159
38sec,681,133
38sec,635,109
38sec,569,81
38sec,565,81
38sec,548,93
38sec,584,116
38sec,574,114
38sec,577,117
38sec,589,158
38sec,588,188
38sec,533,203
38sec,506,194
38sec,518,200
38sec,508,195
38sec,309,50
38sec,321,212
38sec,223,635
38sec,247,950
38sec,233,948
38sec,238,987
38sec,237,1028
38sec,236,1034
38sec,221,1146
38sec,213,1303
39sec,214,1309
39sec,209,1327
39sec,217,1334
39sec,216,1331
39sec,148,1218
39sec,116,1131
39sec,94,1093
39sec,85,1075
39sec,84,1071
39sec,82,1069
39sec,71,1045
39sec,72,1047
39sec,72,1050
39sec,558,935
39sec,832,855
39sec,892,830
39sec,1011,763
39sec,1017,755
39sec,1012,758
39sec,999,767
39sec,997,768
39sec,1006,760
39sec,994,772
39sec,995,775
39sec,990,780
39sec,990,780
39sec,981,785
39sec,979,786
39sec,945,796
39sec,947,796
39sec,932,808
39sec,923,817
39sec,917,828
39sec,920,821
39sec,895,828
39sec,578,854
39sec,193,888
39sec,159,889
39sec,120,868
39sec,99,874
39sec,89,873
39sec,81,883
39sec,92,911
39sec,92,911
39sec,89,909
39sec,86,906
39sec,90,917
39sec,90,916
39sec,87,901
39sec,85,879
39sec,69,877
39sec,75,874
39sec,75,877
39sec,78,888
39sec,79,888
39sec,91,905
39sec,86,894
39sec,77,864
40sec,72,839
40sec,68,798
40sec,64,755
40sec,62,755
40sec,60,759
40sec,58,760
40sec,58,764
40sec,56,767
40sec,60,758
40sec,59,747
40sec,59,745
40sec,59,744
40sec,62,754
40sec,62,755
40sec,55,741
40sec,56,759
40sec,56,759
40sec,55,754
40sec,56,748
40sec,67,752
40sec,66,751
40sec,65,749
40sec,68,752
40sec,68,756
40sec,67,761
40sec,67,764
40sec,66,766
40sec,66,765
40sec,67,762
40sec,67,763
40sec,66,763
40sec,60,762
40sec,61,766
40sec,61,769
40sec,60,775
40sec,61,772
40sec,61,769
40sec,59,765
40sec,59,766
40sec,58,770
40sec,59,770
40sec,60,764
40sec,60,765
40sec,60,767
40sec,57,774
40sec,56,779
40sec,56,780
40sec,60,782
40sec,67,775
40sec,74,782
40sec,74,780
40sec,73,778
40sec,71,780
40sec,68,778
40sec,66,773
40sec,67,767
40sec,67,765
41sec,67,767
41sec,70,773
41sec,70,779
41sec,70,779
41sec,59,772
41sec,61,770
41sec,61,767
41sec,62,768
41sec,61,764
41sec,61,761
41sec,62,760
41sec,65,773
41sec,77,776
41sec,73,770
41sec,71,769
41sec,71,772
41sec,73,770
41sec,66,753
41sec,62,759
41sec,63,765
41sec,53,771
41sec,69,768
41sec,71,764
41sec,69,770
41sec,67,775
41sec,68,789
41sec,68,786
41sec,68,785
41sec,66,783
41sec,67,775
41sec,71,773
41sec,71,766
41sec,71,768
41sec,73,772
41sec,73,773
41sec,73,773
41sec,52,761
41sec,56,763
41sec,53,759
41sec,60,758
41sec,66,763
41sec,62,760
41sec,71,766
41sec,71,767
41sec,73,772
41sec,78,787
41sec,79,789
41sec,77,791
41sec,78,781
41sec,77,779
41sec,77,778
41sec,78,777
41sec,79,777
41sec,79,768
41sec,84,774
41sec,84,773
41sec,72,747
41sec,73,742
41sec,76,747
41sec,75,746
41sec,71,741
42sec,71,754
42sec,68,750
42sec,60,759
42sec,64,758
42sec,63,759
42sec,60,761
42sec,62,764
42sec,64,763
42sec,68,755
42sec,68,757
42sec,68,759
42sec,67,765
42sec,71,779
42sec,71,787
42sec,70,783
42sec,64,774
42sec,63,771
42sec,59,762
42sec,57,751
42sec,54,745
42sec,55,746
42sec,52,743
42sec,54,745
42sec,58,759
42sec,60,763
42sec,60,766
42sec,61,768
42sec,63,771
42sec,67,762
42sec,72,781
42sec,75,779
42sec,76,783
42sec,75,776
42sec,74,778
42sec,70,776
42sec,69,773
42sec,68,769
42sec,63,747
42sec,62,754
42sec,61,757
42sec,58,753
42sec,55,755
42sec,57,755
42sec,63,783
42sec,69,786
42sec,70,787
42sec,74,791
42sec,73,790
42sec,76,772
42sec,68,758
42sec,127,760
42sec,266,759
42sec,297,758
42sec,369,736
42sec,409,752
42sec,448,751
42sec,449,742
42sec,448,751
42sec,439,777
43sec,441,770
43sec,438,773
43sec,436,778
43sec,438,778
43sec,439,780
43sec,434,789
43sec,440,784
43sec,435,786
43sec,429,789
43sec,420,779
43sec,413,768
43sec,214,774
43sec,154,781
43sec,57,786
43sec,57,784
43sec,58,784
43sec,49,729
43sec,49,736
43sec,46,735
43sec,38,736
43sec,34,742
43sec,35,741
43sec,35,742
43sec,39,732
43sec,39,734
43sec,30,726
43sec,27,737
43sec,25,753
43sec,28,757
43sec,29,757
43sec,34,754
43sec,38,760
43sec,48,766
43sec,51,767
43sec,55,768
43sec,59,775
43sec,63,782
43sec,61,778
43sec,50,766
43sec,49,766
43sec,48,771
43sec,40,771
43sec,39,770
43sec,42,777
43sec,46,774
43sec,52,772
43sec,56,771
43sec,58,773
43sec,57,776
43sec,49,783
43sec,46,782
43sec,47,779
43sec,52,776
44sec,54,768
44sec,53,768
44sec,52,761
44sec,49,760
44sec,50,767
44sec,51,778
44sec,51,779
44sec,48,779
44sec,49,786
44sec,56,807
44sec,55,807
44sec,58,809
44sec,58,810
44sec,60,812
44sec,59,812
44sec,61,816
44sec,59,816
44sec,59,816
44sec,39,784
44sec,41,786
44sec,45,786
44sec,47,780
44sec,43,776
44sec,42,778
44sec,44,785
44sec,38,795
44sec,37,803
44sec,38,804
44sec,42,804
44sec,54,812
44sec,56,815
44sec,54,816
44sec,56,816
44sec,55,818
44sec,53,816
44sec,60,835
44sec,76,876
44sec,75,903
44sec,76,909
44sec,75,911
44sec,87,916
44sec,87,913
44sec,87,911
44sec,85,909
44sec,83,905
44sec,83,904
44sec,82,905
44sec,79,905
44sec,78,906
44sec,77,905
44sec,77,905
44sec,79,911
44sec,92,926
44sec,90,925
44sec,88,923
44sec,88,918
44sec,85,903
44sec,82,900
44sec,78,893
44sec,78,892
44sec,77,893
45sec,77,890
45sec,76,890
45sec,71,890
45sec,70,892
45sec,69,885
45sec,70,884
45sec,71,883
45sec,70,883
45sec,73,891
45sec,76,896
45sec,73,889
45sec,79,886
45sec,81,882
45sec,82,877
45sec,84,876
45sec,92,910
45sec,91,907
45sec,90,913
45sec,90,912
45sec,92,913
45sec,105,912
45sec,105,913
45sec,110,916
45sec,110,917
45sec,112,927
45sec,100,893
45sec,94,873
45sec,95,884
45sec,94,888
45sec,94,889
45sec,108,930
45sec,109,931
45sec,105,925
45sec,107,927
45sec,106,925
45sec,104,919
45sec,102,913
45sec,99,909
45sec,99,908
45sec,97,908
45sec,95,904
45sec,93,902
45sec,94,902
45sec,97,902
45sec,102,905
45sec,103,906
45sec,101,907
45sec,94,905
45sec,90,895
45sec,93,903
45sec,91,898
45sec,85,887
45sec,84,901
45sec,78,916
45sec,75,914
45sec,68,900
45sec,75,914
45sec,77,918
45sec,81,925
45sec,77,916
46sec,84,926
46sec,88,923
46sec,92,918
46sec,91,915
46sec,88,875
46sec,94,794
46sec,98,759
46sec,95,662
46sec,96,671
46sec,96,680
46sec,96,683
46sec,88,669
46sec,91,673
46sec,91,671
46sec,88,661
46sec,87,651
46sec,88,653
46sec,91,662
46sec,92,664
46sec,98,663
46sec,98,663
46sec,99,663
46sec,98,661
46sec,92,656
46sec,72,693
46sec,67,699
46sec,59,709
46sec,60,728
46sec,60,730
46sec,64,735
46sec,63,731
46sec,68,735
46sec,70,719
46sec,71,719
46sec,69,728
46sec,69,721
46sec,69,733
46sec,88,743
46sec,132,692
46sec,157,667
46sec,449,334
46sec,545,283
46sec,593,232
46sec,599,221
46sec,616,186
46sec,616,219
46sec,618,200
46sec,644,161
46sec,641,178
46sec,649,147
46sec,668,141
46sec,707,175
46sec,747,260
46sec,835,483
46sec,844,512
46sec,841,516
46sec,846,543
46sec,907,786
47sec,917,845
47sec,916,846
47sec,899,862
47sec,886,866
47sec,887,865
47sec,885,864
47sec,893,848
47sec,896,840
47sec,915,804
47sec,914,802
47sec,915,802
47sec,935,766
47sec,939,757
47sec,950,742
47sec,952,738
47sec,952,736
47sec,952,735
47sec,953,728
47sec,945,728
47sec,947,728
47sec,954,726
47sec,946,735
47sec,941,743
47sec,943,741
47sec,944,742
47sec,945,741
47sec,946,746
47sec,949,748
47sec,948,750
47sec,950,747
47sec,949,747
47sec,947,749
47sec,942,753
47sec,931,760
47sec,928,763
47sec,932,760
47sec,935,758
47sec,945,752
47sec,956,745
47sec,957,743
47sec,955,745
47sec,947,743
47sec,950,743
47sec,947,745
47sec,934,760
47sec,929,767
47sec,924,770
47sec,928,766
47sec,929,766
47sec,940,754
47sec,943,743
47sec,938,743
47sec,939,744
47sec,926,747
47sec,927,747
47sec,920,753
47sec,925,752
47sec,935,756
47sec,937,759
47sec,933,775
47sec,932,774
48sec,932,776
48sec,934,769
48sec,938,764
48sec,938,763
48sec,939,762
48sec,937,752
48sec,939,740
48sec,943,736
48sec,948,735
48sec,951,734
48sec,953,734
48sec,950,738
48sec,950,738
48sec,948,741
48sec,943,749
48sec,940,744
48sec,942,737
48sec,942,735
48sec,939,742
48sec,939,742
48sec,936,751
48sec,936,751
48sec,939,749
48sec,947,745
48sec,943,753
48sec,943,756
48sec,941,751
48sec,946,746
48sec,951,736
48sec,953,736
48sec,953,733
48sec,955,733
48sec,957,734
48sec,959,736
48sec,947,741
48sec,948,742
48sec,949,741
48sec,950,740
48sec,957,739
48sec,956,740
48sec,958,738
48sec,956,741
48sec,954,743
48sec,953,741
48sec,956,734
48sec,957,732
48sec,958,736
48sec,958,733
48sec,949,732
48sec,942,737
48sec,942,740
48sec,954,746
48sec,956,746
48sec,949,746
48sec,953,747
48sec,950,748
48sec,949,752
48sec,947,756
48sec,950,755
49sec,956,745
49sec,957,738
49sec,956,739
49sec,956,738
49sec,952,735
49sec,954,729
49sec,954,726
49sec,957,721
49sec,955,723
49sec,955,723
49sec,955,724
49sec,954,724
49sec,950,727
49sec,941,730
49sec,941,729
49sec,950,723
49sec,952,722
49sec,951,725
49sec,953,724
49sec,955,722
49sec,965,717
49sec,971,717
49sec,973,718
49sec,970,719
49sec,970,727
49sec,963,730
49sec,942,747
49sec,946,744
49sec,946,744
49sec,956,723
49sec,955,726
49sec,954,741
49sec,959,737
49sec,959,736
49sec,958,737
49sec,956,736
49sec,947,730
49sec,952,729
49sec,951,729
49sec,952,729
49sec,953,732
49sec,955,733
49sec,958,735
49sec,957,735
49sec,953,729
49sec,953,729
49sec,950,738
49sec,952,737
49sec,953,739
49sec,952,740
49sec,952,742
49sec,958,742
49sec,957,741
49sec,962,731
49sec,961,731
49sec,955,734
49sec,949,746
49sec,949,750
49sec,949,751
49sec,955,749
50sec,954,755
50sec,953,756
50sec,954,754
50sec,955,750
50sec,955,744
50sec,956,744
50sec,955,741
50sec,955,742
50sec,954,740
50sec,954,733
50sec,954,732
50sec,953,732
50sec,953,735
50sec,953,736
50sec,953,738
50sec,954,738
50sec,953,735
50sec,948,742
50sec,949,741
50sec,949,743
50sec,949,745
50sec,951,737
50sec,950,730
50sec,951,730
50sec,950,729
50sec,951,731
50sec,951,730
50sec,954,736
50sec,961,743
50sec,960,743
50sec,959,745
50sec,959,745
50sec,958,745
50sec,961,744
50sec,966,738
50sec,967,737
50sec,965,743
50sec,960,748
50sec,949,748
50sec,947,749
50sec,947,747
50sec,948,748
50sec,947,749
50sec,948,750
50sec,948,750
50sec,953,747
50sec,954,751
50sec,951,744
50sec,956,753
50sec,958,745
50sec,964,741
50sec,959,742
50sec,954,746
50sec,949,748
50sec,945,747
50sec,929,747
50sec,930,747
50sec,938,739
50sec,955,725
50sec,955,728
50sec,947,728
51sec,948,727
51sec,951,726
51sec,957,724
51sec,953,728
51sec,957,727
51sec,953,737
51sec,953,735
51sec,954,732
51sec,955,728
51sec,958,728
51sec,958,725
51sec,949,714
51sec,952,719
51sec,953,732
51sec,950,744
51sec,948,749
51sec,948,756
51sec,943,755
51sec,944,755
51sec,942,753
51sec,938,753
51sec,933,748
51sec,935,746
51sec,938,741
51sec,942,739
51sec,934,721
51sec,867,662
51sec,583,385
51sec,531,328
51sec,516,321
51sec,490,285
51sec,484,272
51sec,481,257
51sec,481,258
51sec,481,257
51sec,470,217
51sec,460,174
51sec,458,165
51sec,454,155
51sec,463,169
51sec,462,163
51sec,477,196
51sec,436,190
51sec,433,195
51sec,391,230
51sec,293,380
51sec,116,697
51sec,135,651
51sec,148,616
51sec,86,686
51sec,84,688
51sec,67,708
51sec,66,707
51sec,67,705
51sec,66,700
51sec,52,671
51sec,29,612
51sec,28,610
52sec,30,610
52sec,26,624
52sec,40,640
52sec,40,643
52sec,47,656
52sec,55,669
52sec,55,671
52sec,57,674
52sec,61,693
52sec,66,713
52sec,63,769
52sec,62,788
52sec,65,755
52sec,65,762
52sec,68,741
52sec,79,732
52sec,86,757
52sec,88,768
52sec,90,768
52sec,89,767
52sec,88,775
52sec,93,777
52sec,90,778
52sec,85,786
52sec,83,786
52sec,83,793
52sec,84,794
52sec,86,791
52sec,83,777
52sec,83,774
52sec,83,775
52sec,78,784
52sec,75,761
52sec,75,751
52sec,76,758
52sec,77,756
52sec,81,774
52sec,85,768
52sec,85,766
52sec,83,771
52sec,67,781
52sec,66,780
52sec,69,782
52sec,72,782
52sec,86,790
52sec,84,795
52sec,79,797
52sec,74,794
52sec,73,794
52sec,73,804
52sec,68,808
52sec,63,807
52sec,66,809
52sec,72,813
52sec,72,816
52sec,73,818
52sec,73,818
52sec,74,817
52sec,77,816
53sec,82,820
53sec,81,819
53sec,80,817
53sec,79,816
53sec,84,817
53sec,86,818
53sec,85,814
53sec,84,810
53sec,84,808
53sec,81,806
53sec,80,812
53sec,80,812
53sec,81,818
53sec,80,814
53sec,79,811
53sec,73,811
53sec,73,806
53sec,71,799
53sec,69,798
53sec,66,798
53sec,71,799
53sec,69,797
53sec,70,798
53sec,71,800
53sec,71,801
53sec,62,808
53sec,62,806
53sec,66,795
53sec,72,747
53sec,71,742
53sec,69,747
53sec,71,736
53sec,71,731
53sec,72,730
53sec,75,733
53sec,76,734
53sec,74,722
53sec,73,722
53sec,80,735
53sec,121,762
53sec,106,761
53sec,314,775
53sec,433,788
53sec,511,804
53sec,505,803
53sec,498,809
53sec,506,805
53sec,499,803
53sec,499,799
53sec,508,777
53sec,514,770
53sec,510,750
53sec,515,754
53sec,338,758
53sec,69,731
53sec,31,734
53sec,31,731
54sec,31,730
54sec,30,712
54sec,43,719
54sec,45,716
54sec,43,724
54sec,40,729
54sec,40,746
54sec,40,749
54sec,44,747
54sec,47,750
54sec,47,755
54sec,48,755
54sec,48,756
54sec,58,751
54sec,99,731
54sec,97,736
54sec,97,750
54sec,98,755
54sec,101,755
54sec,102,759
54sec,98,758
54sec,99,758
54sec,95,749
54sec,88,732
54sec,88,736
54sec,83,752
54sec,83,749
54sec,83,750
54sec,83,749
54sec,92,742
54sec,98,750
54sec,97,757
54sec,95,758
54sec,92,754
54sec,93,756
54sec,90,747
54sec,90,744
54sec,81,726
54sec,84,741
54sec,83,738
54sec,83,740
54sec,78,733
54sec,77,733
54sec,79,734
54sec,79,737
54sec,81,742
54sec,84,752
54sec,86,775
54sec,89,776
54sec,85,779
54sec,86,772
54sec,86,760
54sec,87,735
54sec,84,739
54sec,79,751
54sec,75,751
54sec,67,747
54sec,70,732
54sec,72,731
54sec,73,731
55sec,76,720
55sec,77,725
55sec,79,723
55sec,81,726
55sec,76,723
55sec,80,725
55sec,86,729
55sec,93,737
55sec,88,731
55sec,86,726
55sec,86,725
55sec,79,739
55sec,79,742
55sec,84,738
55sec,84,742
55sec,85,744
55sec,90,750
55sec,92,753
55sec,99,755
55sec,107,757
55sec,112,766
55sec,115,774
55sec,119,778
55sec,121,773
55sec,117,755
55sec,119,757
55sec,119,757
55sec,121,760
55sec,119,759
55sec,119,759
55sec,117,764
55sec,116,767
55sec,117,767
55sec,118,761
55sec,142,784
55sec,201,809
55sec,255,810
55sec,306,808
55sec,336,803
55sec,418,789
55sec,539,729
55sec,521,761
55sec,524,750
55sec,535,723
55sec,539,710
55sec,542,696
55sec,541,696
55sec,536,706
55sec,527,716
55sec,519,711
55sec,515,718
55sec,515,710
55sec,512,701
55sec,513,699
55sec,510,697
55sec,504,695
55sec,496,697
55sec,485,693
55sec,473,691
56sec,478,699
56sec,478,704
56sec,475,699
56sec,480,686
56sec,479,680
56sec,479,679
56sec,480,680
56sec,484,689
56sec,492,709
56sec,500,732
56sec,500,776
56sec,500,798
56sec,499,800
56sec,497,798
56sec,494,790
56sec,496,788
56sec,496,790
56sec,501,789
56sec,516,788
56sec,516,788
56sec,517,788
56sec,519,785
56sec,524,779
56sec,525,775
56sec,498,802
56sec,482,818
56sec,476,830
56sec,452,863
56sec,425,893
56sec,391,955
56sec,384,967
56sec,384,965
56sec,383,968
56sec,391,968
56sec,396,974
56sec,398,991
56sec,161,747
56sec,179,765
56sec,155,741
56sec,89,704
56sec,84,722
56sec,89,722
56sec,88,720
56sec,67,692
56sec,71,701
56sec,71,700
56sec,72,682
56sec,81,679
56sec,79,680
56sec,77,686
56sec,82,698
56sec,90,717
56sec,885,808
56sec,901,810
56sec,969,822
56sec,962,830
56sec,955,838
56sec,944,816
57sec,958,794
57sec,980,773
57sec,978,765
57sec,977,757
57sec,973,747
57sec,971,745
57sec,973,743
57sec,978,726
57sec,976,713
57sec,975,709
57sec,974,698
57sec,946,689
57sec,963,689
57sec,935,668
57sec,611,444
57sec,555,407
57sec,481,366
57sec,480,378
57sec,478,387
57sec,479,415
57sec,474,402
57sec,478,434
57sec,480,419
57sec,480,374
57sec,468,324
57sec,497,300
57sec,511,285
57sec,530,293
57sec,536,299
57sec,538,298
57sec,540,232
57sec,559,167
57sec,582,138
57sec,595,125
57sec,611,65
57sec,613,82
57sec,611,81
57sec,626,171
57sec,628,110
57sec,625,38
57sec,635,137
57sec,620,44
57sec,628,112
57sec,626,127
57sec,642,206
57sec,630,124
57sec,642,198
57sec,632,129
58sec,647,222
58sec,630,175
58sec,647,252
58sec,613,168
58sec,601,88
58sec,607,117
58sec,599,118
58sec,618,232
58sec,612,225
58sec,592,128
58sec,601,181
58sec,592,135
58sec,600,197
58sec,593,214
58sec,613,281
58sec,597,226
58sec,607,263
58sec,594,217
58sec,598,281
58sec,588,247
58sec,592,285
58sec,578,211
58sec,571,181
58sec,578,211
58sec,575,198
58sec,590,265
58sec,586,238
58sec,575,175
58sec,580,228
58sec,559,187
58sec,541,243
58sec,539,210
58sec,550,223
58sec,543,190
58sec,557,225
58sec,567,174
58sec,563,144
58sec,561,135
58sec,541,210
59sec,550,247
59sec,551,137
59sec,553,138
59sec,553,132
59sec,549,182
59sec,541,166
59sec,540,79
59sec,547,120
59sec,567,45
59sec,579,117
59sec,573,130
59sec,569,206
59sec,563,125
59sec,575,190
59sec,569,130
59sec,565,191
59sec,562,152
59sec,572,195
59sec,567,123
59sec,560,53
59sec,561,65
59sec,556,68
59sec,565,151
59sec,563,124
59sec,560,51
59sec,561,115
59sec,539,41
59sec,554,106
59sec,562,103
59sec,571,148
59sec,568,134
59sec,571,191
59sec,554,129
59sec,558,180
59sec,546,130
59sec,554,194
59sec,541,157
59sec,530,67
59sec,535,96
59sec,547,71
59sec,551,148
60sec,548,105
60sec,541,20
60sec,551,100
60sec,565,42
60sec,567,105
60sec,567,113
60sec,581,163
60sec,561,123
60sec,555,138
60sec,541,204
60sec,546,212
60sec,537,190
60sec,547,212
60sec,556,207
60sec,591,279
60sec,567,269
60sec,588,283
60sec,586,270
60sec,591,264
60sec,592,273
60sec,594,269
60sec,596,272
60sec,596,260
60sec,594,246
60sec,582,172
60sec,581,167
60sec,581,164
60sec,580,163
60sec,579,162
60sec,576,162
60sec,576,160
60sec,576,161
60sec,592,199
60sec,590,195
60sec,591,196
60sec,595,225
60sec,591,216
60sec,592,230
60sec,597,243
60sec,602,268
60sec,607,284
60sec,599,259
60sec,603,195
60sec,599,206
60sec,593,195
60sec,587,185
60sec,596,190
60sec,592,163
60sec,594,173
60sec,592,172
60sec,601,192
60sec,597,184
61sec,592,167
61sec,597,182
61sec,599,184
61sec,584,168
61sec,586,175
61sec,584,173
61sec,590,184
61sec,595,187
61sec,584,167
61sec,591,181
61sec,599,204
61sec,610,233
61sec,602,219
61sec,597,208
61sec,592,202
61sec,553,186
61sec,558,181
61sec,560,184
61sec,576,184
61sec,613,194
61sec,612,194
61sec,617,195
61sec,626,196
61sec,501,121
61sec,489,112
61sec,402,85
61sec,438,102
61sec,432,219
61sec,418,241
61sec,403,229
61sec,393,221
61sec,406,219
61sec,417,217
61sec,418,216
61sec,465,212
61sec,456,208
61sec,428,195
61sec,394,215
61sec,402,205
61sec,400,179
61sec,404,177
61sec,408,185
62sec,428,206
62sec,468,221
62sec,456,221
62sec,439,216
62sec,432,220
62sec,414,209
62sec,418,188
62sec,409,166
62sec,396,191
62sec,397,189
62sec,388,176
62sec,405,152
62sec,397,165
62sec,442,173
62sec,443,175
62sec,444,161
62sec,429,174
62sec,433,168
62sec,427,182
62sec,427,179
62sec,435,174
62sec,450,160
62sec,449,160
62sec,440,161
62sec,399,183
62sec,402,168
62sec,342,153
62sec,327,158
62sec,324,156
62sec,322,154
62sec,421,200
62sec,419,203
63sec,419,203
63sec,315,115
63sec,403,163
63sec,466,206
63sec,409,198
63sec,404,194
63sec,416,171
63sec,422,170
63sec,424,163
63sec,416,162
63sec,395,161
63sec,395,161
63sec,365,136
63sec,377,152
63sec,389,175
63sec,385,178
63sec,393,188
63sec,384,166
63sec,369,164
63sec,370,165
63sec,387,185
63sec,409,159
63sec,409,166
63sec,404,231
63sec,419,243
63sec,416,251
63sec,463,323
63sec,520,491
63sec,523,494
63sec,548,574
63sec,570,682
63sec,555,692
63sec,555,702
63sec,553,711
63sec,553,712
63sec,555,712
63sec,555,713
63sec,555,687
63sec,556,685
63sec,566,674
63sec,563,672
64sec,564,667
64sec,562,650
64sec,561,643
64sec,561,643
64sec,561,606
64sec,567,617
64sec,570,633
64sec,568,646
64sec,563,665
64sec,557,675
64sec,560,670
64sec,555,679
64sec,551,685
64sec,544,699
64sec,542,706
64sec,542,706
64sec,541,699
64sec,543,705
64sec,547,716
64sec,548,715
64sec,547,715
64sec,544,733
64sec,546,724
64sec,535,601
64sec,536,666
64sec,425,261
64sec,339,43
64sec,451,122
64sec,436,100
64sec,351,7
64sec,371,8
64sec,411,15
64sec,415,39
65sec,361,26
65sec,360,36
65sec,360,39
65sec,354,92
65sec,355,124
65sec,358,147
65sec,372,137
65sec,376,127
65sec,395,19
65sec,406,40
65sec,469,313
65sec,411,600
65sec,404,491
65sec,401,431
65sec,393,521
65sec,388,490
65sec,361,204
66sec,365,253
66sec,372,248
66sec,368,201
66sec,368,198
66sec,331,395
66sec,345,381
66sec,353,200
66sec,343,180
66sec,365,99
66sec,369,127
66sec,365,142
66sec,378,130
66sec,353,158
66sec,371,115
66sec,389,159
66sec,428,173
66sec,406,194
66sec,425,205
66sec,432,209
66sec,477,218
66sec,474,268
66sec,456,291
66sec,457,295
66sec,462,274
66sec,445,305
66sec,449,289
66sec,448,295
66sec,454,289
66sec,466,332
66sec,466,349
66sec,502,600
66sec,504,593
66sec,513,651
66sec,518,679
66sec,519,685
66sec,520,693
66sec,529,733
66sec,523,733
66sec,528,747
66sec,535,757
66sec,536,761
66sec,535,759
66sec,541,763
66sec,545,765
66sec,533,750
66sec,538,742
66sec,535,739
66sec,503,733
66sec,507,727
66sec,275,747
66sec,209,746
66sec,173,721
66sec,161,719
66sec,138,722
66sec,133,735
66sec,140,756
66sec,142,760
67sec,138,756
67sec,126,753
67sec,120,744
67sec,96,731
67sec,99,733
67sec,95,742
67sec,95,744
67sec,89,742
67sec,77,743
67sec,65,746
67sec,85,790
67sec,82,798
67sec,82,807
67sec,91,815
67sec,97,804
67sec,98,812
67sec,96,808
67sec,101,802
67sec,101,805
67sec,101,811
67sec,100,814
67sec,98,822
67sec,96,824
67sec,95,824
67sec,96,812
67sec,98,790
67sec,99,784
67sec,97,785
67sec,94,782
67sec,93,779
67sec,92,781
67sec,97,796
67sec,100,797
67sec,103,797
67sec,98,785
67sec,90,778
67sec,88,780
67sec,93,781
67sec,93,772
67sec,89,751
67sec,84,743
67sec,71,716
67sec,71,716
67sec,79,708
67sec,79,710
67sec,79,710
67sec,83,724
67sec,83,725
67sec,85,748
67sec,87,754
67sec,86,753
67sec,83,750
67sec,80,744
68sec,75,740
68sec,64,735
68sec,66,736
68sec,69,734
68sec,61,735
68sec,63,736
68sec,66,740
68sec,68,745
68sec,52,739
68sec,53,724
68sec,53,715
68sec,60,720
68sec,69,739
68sec,64,733
68sec,59,723
68sec,70,747
68sec,73,747
68sec,72,706
68sec,70,711
68sec,69,713
68sec,68,738
68sec,64,738
68sec,60,730
68sec,54,721
68sec,51,720
68sec,50,717
68sec,54,707
68sec,54,711
68sec,56,706
68sec,58,706
68sec,54,697
68sec,55,694
68sec,58,689
68sec,57,684
68sec,62,679
68sec,62,695
68sec,61,711
68sec,57,711
68sec,58,715
68sec,58,719
68sec,57,720
68sec,53,719
68sec,51,720
68sec,50,720
68sec,51,725
68sec,51,724
68sec,53,727
68sec,55,722
68sec,55,721
68sec,56,717
68sec,56,713
68sec,52,712
68sec,49,710
68sec,49,708
68sec,50,699
68sec,50,698
68sec,50,701
68sec,53,709
69sec,59,739
69sec,59,742
69sec,61,752
69sec,65,763
69sec,65,764
69sec,66,770
69sec,66,748
69sec,66,739
69sec,65,736
69sec,61,735
69sec,62,733
69sec,63,736
69sec,65,743
69sec,73,772
69sec,72,781
69sec,71,781
69sec,72,779
69sec,72,779
69sec,73,778
69sec,72,779
69sec,68,774
69sec,69,778
69sec,74,793
69sec,78,807
69sec,85,826
69sec,85,825
69sec,91,836
69sec,92,837
69sec,95,843
69sec,95,848
69sec,88,848
69sec,91,848
69sec,89,848
69sec,86,849
69sec,74,839
69sec,71,847
69sec,72,851
69sec,86,862
69sec,79,865
69sec,80,865
69sec,86,857
69sec,85,860
69sec,85,855
69sec,86,855
69sec,92,863
69sec,93,869
69sec,96,878
69sec,96,877
69sec,94,882
69sec,92,891
69sec,96,893
69sec,99,908
69sec,100,906
69sec,103,904
69sec,107,900
70sec,109,894
70sec,108,896
70sec,111,889
70sec,108,889
70sec,102,882
70sec,91,866
70sec,92,868
70sec,91,865
70sec,90,864
70sec,84,859
70sec,82,858
70sec,85,850
70sec,85,850
70sec,89,834
70sec,93,827
70sec,95,836
70sec,96,837
70sec,96,839
70sec,104,846
70sec,103,847
70sec,104,861
70sec,103,860
70sec,100,863
70sec,89,850
70sec,94,854
70sec,90,840
70sec,74,836
70sec,81,839
70sec,88,836
70sec,96,842
70sec,101,838
70sec,109,848
70sec,104,837
70sec,103,838
70sec,103,838
70sec,103,843
70sec,104,844
70sec,109,844
70sec,105,845
70sec,107,839
70sec,106,825
70sec,105,822
70sec,99,821
70sec,91,828
70sec,92,827
70sec,88,833
70sec,88,833
70sec,88,832
70sec,89,834
70sec,89,846
70sec,89,848
70sec,88,852
70sec,85,844
70sec,76,838
70sec,83,844
70sec,81,840
70sec,84,840
70sec,84,840
70sec,83,840
71sec,76,829
71sec,79,835
71sec,85,838
71sec,87,838
71sec,91,837
71sec,88,808
71sec,78,783
71sec,84,802
71sec,96,810
71sec,99,816
71sec,91,816
71sec,70,791
71sec,66,790
71sec,62,784
71sec,64,786
71sec,64,787
71sec,66,790
71sec,68,794
71sec,74,807
71sec,72,807
71sec,73,807
71sec,74,816
71sec,69,815
71sec,141,847
71sec,182,845
71sec,646,845
71sec,708,847
71sec,883,847
71sec,890,848
71sec,910,852
71sec,902,853
71sec,893,856
71sec,890,869
71sec,891,866
71sec,895,864
71sec,898,862
71sec,902,844
71sec,902,842
71sec,901,841
71sec,898,845
71sec,657,1177
71sec,548,1367
71sec,537,1388
71sec,530,1398
71sec,526,1400
71sec,523,1417
71sec,515,1410
71sec,517,1415
71sec,514,1402
71sec,522,1378
71sec,519,1388
71sec,519,1381
71sec,519,1383
71sec,522,1381
71sec,526,1381
71sec,550,743
71sec,526,480
71sec,524,450
71sec,535,474
71sec,521,405
72sec,518,372
72sec,510,280
72sec,511,257
72sec,510,261
72sec,520,270
72sec,488,244
72sec,499,237
72sec,501,236
72sec,503,253
72sec,504,249
72sec,508,245
72sec,529,251
72sec,539,250
72sec,535,251
72sec,557,245
72sec,587,240
72sec,640,236
72sec,692,190
72sec,685,185
72sec,713,184
72sec,737,193
72sec,730,185
72sec,723,177
72sec,694,222
72sec,690,221
72sec,518,651
72sec,499,772
72sec,497,802
72sec,508,784
72sec,515,827
72sec,508,866
72sec,515,862
72sec,510,848
72sec,508,832
72sec,505,831
72sec,504,830
72sec,499,829
72sec,503,828
72sec,506,818
72sec,512,801
72sec,514,773
72sec,516,771
72sec,514,762
72sec,524,765
72sec,524,764
72sec,537,749
72sec,532,753
72sec,517,727
72sec,514,709
72sec,514,680
72sec,514,660
72sec,517,656
72sec,516,660
72sec,526,603
72sec,525,568
72sec,536,562
73sec,528,554
73sec,704,82
73sec,619,32
73sec,482,6
73sec,473,15
74sec,452,37
74sec,457,11
74sec,456,17
74sec,473,9
74sec,475,24
74sec,472,30
74sec,470,33
74sec,466,45
74sec,467,55
74sec,457,79
74sec,469,85
74sec,515,151
74sec,552,232
74sec,558,244
74sec,581,284
74sec,585,343
74sec,582,349
74sec,574,358
74sec,581,327
74sec,580,301
74sec,573,309
74sec,567,302
74sec,543,292
74sec,542,293
74sec,542,289
74sec,558,268
74sec,557,268
74sec,560,249
74sec,559,234
74sec,570,206
74sec,575,185
74sec,568,184
74sec,570,184
74sec,583,185
74sec,580,195
74sec,576,203
74sec,567,209
74sec,569,212
74sec,569,216
74sec,561,208
74sec,556,203
74sec,559,203
74sec,553,190
74sec,548,184
74sec,548,183
74sec,555,163
74sec,566,159
74sec,576,151
74sec,581,147
74sec,585,152
74sec,572,169
74sec,581,170
74sec,575,174
74sec,569,181
74sec,568,201
75sec,573,191
75sec,564,188
75sec,567,175
75sec,570,166
75sec,571,155
75sec,571,147
75sec,563,143
75sec,547,138
75sec,540,137
75sec,542,144
75sec,539,145
75sec,549,170
75sec,549,171
75sec,554,152
75sec,561,151
75sec,566,138
75sec,563,154
75sec,559,120
75sec,558,123
75sec,544,117
75sec,518,114
75sec,509,115
75sec,538,153
75sec,543,155
75sec,457,294
75sec,436,316
75sec,295,527
75sec,252,607
75sec,224,638
75sec,235,618
75sec,172,701
75sec,128,771
75sec,135,769
75sec,138,769
75sec,149,767
75sec,133,763
75sec,125,758
75sec,104,748
75sec,105,747
75sec,107,747
75sec,101,739
75sec,100,739
75sec,106,745
75sec,109,750
75sec,132,787
75sec,187,858
75sec,293,1006
75sec,365,1110
75sec,437,1219
75sec,448,1234
75sec,492,1295
75sec,494,1301
75sec,497,1312
75sec,497,1312
75sec,496,1314
76sec,494,1323
76sec,494,1325
76sec,494,1326
76sec,494,1323
76sec,497,1320
76sec,512,1319
76sec,519,1317
76sec,523,1311
76sec,532,1307
76sec,541,1311
76sec,543,1317
76sec,557,1312
76sec,553,1315
76sec,555,1317
76sec,554,1313
76sec,552,1306
76sec,549,1299
76sec,456,1003
76sec,456,995
76sec,439,934
76sec,453,841
76sec,450,854
76sec,450,845
76sec,481,815
76sec,484,820
76sec,482,800
76sec,479,790
76sec,477,794
76sec,475,798
76sec,476,788
76sec,446,790
76sec,449,782
76sec,440,775
76sec,451,778
76sec,467,760
76sec,471,756
76sec,471,759
76sec,477,758
76sec,480,756
76sec,484,750
76sec,494,718
76sec,493,727
76sec,510,718
76sec,515,711
76sec,513,709
76sec,510,704
76sec,517,716
76sec,516,719
76sec,516,719
76sec,515,721
76sec,552,763
76sec,552,763
76sec,463,1165
77sec,464,1164
77sec,473,1130
77sec,461,1110
77sec,455,1111
77sec,442,1117
77sec,441,1119
77sec,440,1110
77sec,442,1115
77sec,465,1171
77sec,465,1180
77sec,463,1177
77sec,511,1148
77sec,580,1096
77sec,591,1081
77sec,611,1058
77sec,619,1038
77sec,619,1033
77sec,619,1029
77sec,608,1001
77sec,607,1000
77sec,558,901
77sec,514,821
77sec,503,799
77sec,491,780
77sec,485,810
77sec,490,818
77sec,506,826
77sec,513,847
77sec,517,854
77sec,522,861
77sec,519,853
77sec,524,850
77sec,526,848
77sec,529,847
77sec,527,854
77sec,527,855
77sec,527,853
77sec,525,857
77sec,524,859
77sec,530,866
77sec,524,865
77sec,521,863
77sec,516,861
77sec,487,886
77sec,472,904
77sec,418,985
77sec,420,999
77sec,421,1004
77sec,405,1063
77sec,404,1065
77sec,404,1066
77sec,403,1069
77sec,403,1070
77sec,402,1071
77sec,404,1070
77sec,411,1051
77sec,412,1049
77sec,413,1052
77sec,421,1061
78sec,431,1066
78sec,499,1064
78sec,552,1064
78sec,566,1060
78sec,626,1044
78sec,627,1037
78sec,630,1018
78sec,632,1008
78sec,633,1005
78sec,630,1008
78sec,617,991
78sec,560,879
78sec,550,853
78sec,553,878
78sec,537,848
78sec,501,775
78sec,478,742
78sec,475,753
78sec,475,754
78sec,473,751
78sec,472,742
78sec,472,735
78sec,472,734
78sec,472,726
78sec,467,719
78sec,515,653
78sec,259,890
78sec,300,926
78sec,424,990
78sec,410,989
78sec,430,998
78sec,433,999
78sec,469,1016
78sec,465,1018
78sec,456,1028
78sec,448,1031
78sec,459,1022
78sec,455,1032
78sec,453,1040
78sec,451,1048
78sec,460,1111
78sec,468,1171
78sec,470,1172
78sec,489,1253
78sec,484,1293
78sec,484,1303
78sec,486,1313
78sec,488,1325
78sec,487,1314
78sec,486,1314
78sec,486,1307
78sec,490,1318
78sec,493,1326
78sec,499,1337
79sec,496,1335
79sec,498,1338
79sec,495,1338
79sec,494,1338
79sec,490,1334
79sec,481,1331
79sec,487,1338
79sec,493,1349
79sec,493,1344
79sec,493,1343
79sec,481,1333
79sec,479,1335
79sec,478,1334
79sec,476,1334
79sec,483,1340
79sec,489,1344
79sec,489,1345
79sec,502,1346
79sec,526,1343
79sec,536,1336
79sec,544,1333
79sec,552,1318
79sec,553,1296
79sec,559,1284
79sec,563,1285
79sec,559,1274
79sec,551,1285
79sec,545,1293
79sec,544,1305
79sec,545,1313
79sec,546,1310
79sec,542,1317
79sec,551,1328
79sec,549,1323
79sec,546,1318
79sec,536,1314
79sec,539,1314
79sec,541,1318
79sec,541,1319
79sec,541,1320
79sec,542,1322
79sec,545,1326
79sec,546,1328
79sec,546,1330
79sec,544,1326
79sec,541,1316
79sec,543,1317
79sec,543,1317
79sec,544,1320
79sec,541,1327
79sec,535,1322
79sec,539,1322
79sec,540,1326
79sec,539,1319
79sec,544,1323
79sec,546,1325
79sec,557,1327
79sec,554,1325
79sec,552,1329
80sec,557,1326
80sec,557,1324
80sec,547,1329
80sec,545,1328
80sec,545,1327
80sec,542,1326
80sec,542,1326
80sec,541,1326
80sec,542,1325
80sec,542,1319
80sec,539,1309
80sec,539,1305
80sec,539,1306
80sec,542,1309
80sec,541,1319
80sec,541,1315
80sec,542,1316
80sec,542,1320
80sec,538,1321
80sec,545,1325
80sec,545,1323
80sec,543,1317
80sec,545,1323
80sec,545,1324
80sec,544,1324
80sec,544,1321
80sec,544,1320
80sec,542,1317
80sec,542,1318
80sec,541,1309
80sec,545,1314
80sec,546,1314
80sec,548,1314
80sec,546,1317
80sec,538,1302
80sec,526,1267
80sec,509,1195
80sec,501,1155
80sec,475,1020
80sec,463,964
80sec,460,956
80sec,458,955
80sec,457,955
80sec,459,970
80sec,459,970
80sec,459,964
80sec,473,938
80sec,489,894
80sec,506,841
80sec,518,807
80sec,529,801
80sec,531,795
80sec,531,792
80sec,528,803
80sec,525,809
80sec,524,791
80sec,521,792
80sec,526,785
80sec,524,785
80sec,521,785
80sec,519,786
81sec,519,792
81sec,516,796
81sec,514,802
81sec,517,811
81sec,524,821
81sec,525,824
81sec,527,827
81sec,528,826
81sec,529,820
81sec,526,807
81sec,518,797
81sec,518,793
81sec,515,784
81sec,513,780
81sec,513,780
81sec,514,797
81sec,511,805
81sec,438,806
81sec,313,798
81sec,297,798
81sec,176,806
81sec,145,807
81sec,60,840
81sec,77,822
81sec,84,799
81sec,88,806
81sec,86,797
81sec,87,790
81sec,83,782
81sec,84,777
81sec,85,780
81sec,87,783
81sec,88,802
81sec,89,823
81sec,88,812
81sec,87,832
81sec,84,829
81sec,84,828
81sec,82,817
81sec,82,815
81sec,83,823
81sec,82,821
81sec,84,828
81sec,85,855
81sec,87,858
81sec,97,875
81sec,106,879
81sec,108,889
81sec,107,888
81sec,119,896
81sec,117,898
81sec,114,899
81sec,121,895
81sec,116,898
81sec,120,902
81sec,114,902
81sec,113,899
81sec,156,888
82sec,327,837
82sec,336,835
82sec,371,823
82sec,396,813
82sec,426,804
82sec,446,796
82sec,444,780
82sec,443,769
82sec,442,760
82sec,440,746
82sec,439,752
82sec,422,759
82sec,376,781
82sec,215,872
82sec,257,847
82sec,196,882
82sec,82,938
82sec,80,934
82sec,69,921
82sec,67,912
82sec,54,894
82sec,54,894
82sec,57,889
82sec,51,904
82sec,58,898
82sec,64,908
82sec,57,908
82sec,70,913
82sec,65,914
82sec,66,914
82sec,68,913
82sec,72,911
82sec,74,910
82sec,76,912
82sec,75,916
82sec,71,921
82sec,69,923
82sec,72,919
82sec,73,918
82sec,72,919
82sec,76,915
82sec,77,921
82sec,76,931
82sec,80,929
82sec,81,927
82sec,79,932
82sec,77,951
82sec,78,948
82sec,80,951
82sec,81,953
82sec,102,929
82sec,89,919
82sec,86,919
82sec,90,921
82sec,87,935
82sec,86,944
82sec,101,948
82sec,99,950
82sec,96,949
83sec,99,944
83sec,105,946
83sec,202,920
83sec,480,820
83sec,504,809
83sec,527,785
83sec,539,763
83sec,552,748
83sec,553,730
83sec,558,731
83sec,561,730
83sec,559,732
83sec,556,732
83sec,560,735
83sec,559,736
83sec,560,736
83sec,557,731
83sec,538,705
83sec,540,698
83sec,312,791
83sec,209,853
83sec,120,904
83sec,76,942
83sec,78,946
83sec,121,1011
83sec,101,957
83sec,106,973
83sec,102,968
83sec,108,936
83sec,80,930
83sec,81,930
83sec,92,930
83sec,88,927
83sec,87,923
83sec,89,914
83sec,81,896
83sec,82,892
83sec,77,890
83sec,70,898
83sec,67,898
83sec,78,910
83sec,74,906
83sec,107,893
83sec,102,893
83sec,103,893
83sec,88,898
83sec,85,902
83sec,96,900
83sec,91,904
83sec,79,914
83sec,94,918
83sec,87,920
83sec,83,921
83sec,63,922
83sec,59,921
83sec,66,921
83sec,59,934
83sec,57,930
83sec,78,938
83sec,78,939
84sec,75,937
84sec,76,932
84sec,70,929
84sec,68,938
84sec,60,938
84sec,60,943
84sec,66,947
84sec,71,956
84sec,70,951
84sec,66,949
84sec,61,948
84sec,56,947
84sec,56,942
84sec,54,932
84sec,53,933
84sec,54,927
84sec,55,928
84sec,56,930
84sec,60,937
84sec,63,941
84sec,74,961
84sec,78,963
84sec,73,955
84sec,69,946
84sec,58,936
84sec,61,940
84sec,61,940
84sec,62,941
84sec,62,940
84sec,60,933
84sec,61,934
84sec,60,930
84sec,62,934
84sec,62,934
84sec,64,937
84sec,75,950
84sec,73,947
84sec,72,947
84sec,69,945
84sec,71,947
84sec,60,947
84sec,59,944
84sec,60,942
84sec,59,944
84sec,46,922
84sec,47,923
84sec,51,932
84sec,57,921
84sec,57,920
84sec,57,919
84sec,59,922
84sec,60,922
84sec,60,923
84sec,62,924
84sec,64,926
84sec,63,925
84sec,69,932
84sec,68,935
84sec,66,939
84sec,68,933
85sec,67,935
85sec,62,912
85sec,60,907
85sec,63,924
85sec,66,925
85sec,67,932
85sec,69,944
85sec,69,943
85sec,68,939
85sec,65,939
85sec,62,932
85sec,64,932
85sec,66,931
85sec,63,924
85sec,73,929
85sec,75,929
85sec,76,929
85sec,80,930
85sec,86,933
85sec,90,932
85sec,101,925
85sec,100,926
85sec,100,927
85sec,104,929
85sec,108,927
85sec,108,929
85sec,104,943
85sec,103,946
85sec,104,945
85sec,104,945
85sec,103,947
85sec,103,949
85sec,104,945
85sec,103,935
85sec,101,920
85sec,95,933
85sec,95,932
85sec,93,935
85sec,96,939
85sec,97,936
85sec,95,938
85sec,87,940
85sec,86,941
85sec,88,943
85sec,85,943
85sec,84,946
85sec,83,948
85sec,81,943
85sec,79,937
85sec,80,937
85sec,71,937
85sec,66,930
85sec,272,955
85sec,269,958
85sec,299,928
85sec,384,898
85sec,483,848
85sec,549,807
85sec,565,800
86sec,568,781
86sec,576,731
86sec,581,720
86sec,581,720
86sec,586,699
86sec,581,685
86sec,578,681
86sec,571,694
86sec,573,688
86sec,567,676
86sec,568,689
86sec,568,696
86sec,568,709
86sec,568,712
86sec,569,713
86sec,570,713
86sec,570,709
86sec,571,709
86sec,572,711
86sec,573,711
86sec,563,717
86sec,517,698
86sec,524,715
86sec,409,741
86sec,294,766
86sec,157,790
86sec,76,803
86sec,58,802
86sec,55,796
86sec,47,811
86sec,53,800
86sec,47,780
86sec,47,767
86sec,50,753
86sec,57,739
86sec,76,720
86sec,92,701
86sec,76,721
86sec,88,725
86sec,79,723
86sec,77,718
86sec,78,715
86sec,101,758
86sec,96,764
86sec,390,759
86sec,623,771
86sec,715,779
86sec,922,788
86sec,919,795
86sec,921,805
86sec,921,822
86sec,916,816
86sec,916,812
86sec,919,800
86sec,921,796
86sec,927,780
86sec,928,780
86sec,936,784
87sec,940,781
87sec,943,779
87sec,950,774
87sec,953,771
87sec,958,767
87sec,963,767
87sec,964,769
87sec,964,769
87sec,966,768
87sec,966,762
87sec,965,762
87sec,962,764
87sec,960,763
87sec,950,768
87sec,949,773
87sec,952,781
87sec,956,792
87sec,954,784
87sec,952,777
87sec,955,770
87sec,958,765
87sec,957,765
87sec,958,765
87sec,960,767
87sec,964,764
87sec,963,761
87sec,956,757
87sec,953,758
87sec,956,758
87sec,956,758
87sec,956,756
87sec,956,757
87sec,957,761
87sec,951,767
87sec,947,768
87sec,949,770
87sec,949,771
87sec,948,775
87sec,944,782
87sec,944,785
87sec,945,787
87sec,948,786
87sec,948,787
87sec,953,783
87sec,952,779
87sec,953,773
87sec,954,768
87sec,959,771
87sec,970,780
87sec,962,779
87sec,949,781
87sec,955,781
87sec,943,779
87sec,944,779
87sec,944,779
87sec,949,780
87sec,951,779
87sec,951,779
87sec,951,780
87sec,951,779
88sec,947,781
88sec,945,779
88sec,944,776
88sec,944,774
88sec,943,776
88sec,940,778
88sec,939,778
88sec,939,780
88sec,942,783
88sec,942,783
88sec,940,781
88sec,940,782
88sec,945,773
88sec,944,773
88sec,943,778
88sec,942,780
88sec,941,780
88sec,938,783
88sec,933,790
88sec,932,793
88sec,931,795
88sec,932,796
88sec,934,796
88sec,938,794
88sec,938,793
88sec,936,795
88sec,936,794
88sec,934,793
88sec,935,792
88sec,934,795
88sec,933,796
88sec,932,802
88sec,932,802
88sec,931,802
88sec,933,804
88sec,933,805
88sec,932,806
88sec,932,806
88sec,931,807
88sec,932,809
88sec,936,813
88sec,941,799
88sec,942,796
88sec,942,790
88sec,943,789
88sec,944,790
88sec,945,799
88sec,947,807
88sec,945,801
88sec,950,818
88sec,956,802
88sec,957,787
88sec,955,779
88sec,944,780
88sec,943,781
88sec,947,783
88sec,949,783
88sec,944,787
88sec,943,788
89sec,934,790
89sec,932,789
89sec,933,789
89sec,936,785
89sec,946,785
89sec,947,784
89sec,945,784
89sec,942,784
89sec,942,786
89sec,937,787
89sec,937,787
89sec,933,783
89sec,932,783
89sec,929,780
89sec,929,779
89sec,930,775
89sec,932,768
89sec,933,760
89sec,932,767
89sec,932,782
89sec,931,783
89sec,931,785
89sec,930,785
89sec,929,789
89sec,930,787
89sec,925,785
89sec,924,784
89sec,919,784
89sec,918,785
89sec,913,784
89sec,917,784
89sec,915,782
89sec,921,781
89sec,914,779
89sec,914,781
89sec,920,779
89sec,917,780
89sec,917,780
89sec,921,780
89sec,928,784
89sec,928,783
89sec,932,788
89sec,934,794
89sec,932,796
89sec,930,795
89sec,931,795
89sec,933,789
89sec,933,789
89sec,932,783
89sec,934,785
89sec,935,781
89sec,935,778
89sec,934,778
89sec,933,778
89sec,932,779
89sec,931,781
89sec,931,786
89sec,933,784
89sec,937,784
89sec,939,789
89sec,940,785
90sec,941,780
90sec,940,771
90sec,941,763
90sec,937,763
90sec,931,769
90sec,930,771
90sec,931,771
90sec,931,772
90sec,931,775
90sec,931,780
90sec,933,779
90sec,936,780
90sec,936,779
90sec,935,783
90sec,933,786
90sec,933,788
90sec,932,788
90sec,928,788
90sec,915,788
90sec,912,790
90sec,914,782
90sec,916,782
90sec,917,781
90sec,919,780
90sec,926,774
90sec,929,771
90sec,930,766
90sec,930,766
90sec,930,766
90sec,928,766
90sec,930,771
90sec,934,776
90sec,936,775
90sec,939,773
90sec,939,773
90sec,937,774
90sec,936,775
90sec,937,776
90sec,937,762
90sec,935,759
90sec,935,758
90sec,936,771
90sec,946,767
90sec,950,772
90sec,951,770
90sec,951,770
90sec,952,769
90sec,950,767
90sec,953,771
90sec,952,769
90sec,952,768
90sec,952,768
90sec,957,767
90sec,963,762
90sec,968,759
90sec,972,761
90sec,971,762
90sec,966,764
90sec,962,762
90sec,960,759
91sec,960,758
91sec,957,761
91sec,956,764
91sec,955,768
91sec,960,767
91sec,962,767
91sec,965,765
91sec,964,765
91sec,966,761
91sec,969,758
91sec,969,760
91sec,968,760
91sec,968,760
91sec,969,759
91sec,970,758
91sec,969,758
91sec,967,759
91sec,963,759
91sec,961,757
91sec,960,749
91sec,964,731
91sec,979,672
91sec,983,641
91sec,984,636
91sec,991,610
91sec,993,601
91sec,995,591
91sec,995,589
91sec,983,626
91sec,987,615
91sec,987,617
91sec,1007,624
91sec,997,627
91sec,992,626
91sec,985,632
91sec,960,653
91sec,963,644
91sec,959,640
91sec,950,645
91sec,948,646
91sec,635,714
91sec,566,729
91sec,490,758
91sec,409,853
91sec,400,856
91sec,320,955
91sec,311,968
91sec,267,993
91sec,257,1005
91sec,218,1021
91sec,191,1023
91sec,167,1019
91sec,161,1002
91sec,159,989
92sec,154,984
92sec,150,977
92sec,155,972
92sec,140,943
92sec,116,906
92sec,100,898
92sec,96,897
92sec,93,896
92sec,91,897
92sec,82,891
92sec,78,883
92sec,68,864
92sec,68,862
92sec,77,843
92sec,76,844
92sec,76,842
92sec,77,840
92sec,87,794
92sec,88,751
92sec,101,726
92sec,93,731
92sec,89,731
92sec,92,731
92sec,88,733
92sec,93,728
92sec,101,728
92sec,96,731
92sec,106,734
92sec,99,737
92sec,97,741
92sec,91,740
92sec,79,741
92sec,77,741
92sec,94,719
92sec,84,722
92sec,73,736
92sec,63,748
92sec,58,729
92sec,59,721
92sec,67,716
92sec,63,755
92sec,64,752
92sec,62,756
92sec,61,748
92sec,72,753
92sec,59,746
92sec,68,739
92sec,76,737
92sec,68,755
92sec,97,755
92sec,85,759
92sec,82,756
92sec,101,743
92sec,97,745
92sec,78,734
92sec,68,738
92sec,61,752
92sec,56,759
92sec,60,758
92sec,65,752
92sec,70,760
93sec,73,765
93sec,73,765
93sec,73,758
93sec,68,750
93sec,84,749
93sec,87,750
93sec,81,741
93sec,96,753
93sec,91,760
93sec,87,764
93sec,95,759
93sec,87,760
93sec,80,761
93sec,77,760
93sec,73,771
93sec,75,770
93sec,74,779
93sec,72,782
93sec,65,786
93sec,66,789
93sec,63,783
93sec,66,787
93sec,63,776
93sec,63,771
93sec,63,771
93sec,63,772
93sec,66,763
93sec,66,761
93sec,66,764
93sec,66,757
93sec,67,756
93sec,67,764
93sec,68,765
93sec,67,769
93sec,93,790
93sec,85,787
93sec,83,784
93sec,102,785
93sec,95,785
93sec,76,781
93sec,70,773
93sec,69,770
93sec,68,772
93sec,70,776
93sec,70,774
93sec,72,772
93sec,73,768
93sec,73,766
93sec,77,771
93sec,77,770
93sec,78,778
93sec,78,776
93sec,75,776
93sec,71,768
93sec,70,767
93sec,70,767
93sec,69,761
93sec,71,761
93sec,72,761
93sec,73,764
94sec,71,764
94sec,71,763
94sec,71,764
94sec,71,765
94sec,64,764
94sec,68,767
94sec,68,769
94sec,69,769
94sec,71,773
94sec,72,772
94sec,73,771
94sec,73,768
94sec,73,769
94sec,76,766
94sec,78,755
94sec,77,748
94sec,76,749
94sec,68,751
94sec,69,748
94sec,69,751
94sec,74,757
94sec,73,758
94sec,75,761
94sec,75,761
94sec,74,758
94sec,76,766
94sec,73,771
94sec,72,772
94sec,72,774
94sec,69,777
94sec,69,768
94sec,66,759
94sec,76,774
94sec,78,777
94sec,75,761
94sec,69,739
94sec,70,738
94sec,67,734
94sec,67,734
94sec,67,733
94sec,66,732
94sec,65,747
94sec,66,748
94sec,67,750
94sec,70,744
94sec,71,753
94sec,69,750
94sec,69,750
94sec,71,753
94sec,63,729
94sec,61,731
94sec,63,737
94sec,72,739
94sec,66,734
94sec,62,727
94sec,57,733
95sec,55,722
95sec,53,732
95sec,54,725
95sec,57,724
95sec,58,717
95sec,57,717
95sec,58,715
95sec,60,720
95sec,63,727
95sec,69,747
95sec,67,760
95sec,63,757
95sec,67,759
95sec,67,755
95sec,66,753
95sec,66,751
95sec,62,748
95sec,57,744
95sec,56,745
95sec,62,748
95sec,62,750
95sec,66,745
95sec,66,744
95sec,70,740
95sec,68,740
95sec,67,736
95sec,66,730
95sec,58,736
95sec,57,741
95sec,58,742
95sec,59,747
95sec,59,744
95sec,63,743
95sec,70,743
95sec,68,741
95sec,67,736
95sec,65,732
95sec,66,735
95sec,67,755
95sec,68,747
95sec,66,743
95sec,71,751
95sec,75,756
95sec,76,757
95sec,77,764
95sec,75,761
95sec,73,757
95sec,73,758
95sec,72,757
95sec,69,758
95sec,68,759
95sec,66,758
95sec,66,758
95sec,61,747
95sec,52,728
95sec,52,728
95sec,50,725
95sec,48,720
96sec,50,724
96sec,49,724
96sec,46,729
96sec,46,726
96sec,48,725
96sec,46,736
96sec,48,737
96sec,47,733
96sec,50,729
96sec,51,729
96sec,51,730
96sec,55,733
96sec,60,740
96sec,57,733
96sec,60,745
96sec,60,747
96sec,61,746
96sec,61,742
96sec,50,726
96sec,48,719
96sec,47,718
96sec,45,721
96sec,47,730
96sec,48,732
96sec,61,744
96sec,68,747
96sec,635,810
96sec,837,833
96sec,892,840
96sec,909,844
96sec,933,891
96sec,943,887
96sec,943,888
96sec,940,885
96sec,943,877
96sec,944,877
96sec,961,853
96sec,966,856
96sec,964,857
96sec,968,860
96sec,980,881
96sec,986,876
96sec,992,835
96sec,989,791
96sec,702,408
96sec,610,289
96sec,599,265
96sec,568,183
96sec,605,211
96sec,561,149
96sec,589,221
96sec,595,244
96sec,588,238
96sec,606,283
96sec,594,68
97sec,599,68
97sec,602,11
97sec,537,504
97sec,536,553
97sec,516,766
97sec,484,1100
97sec,479,1164
97sec,479,1290
97sec,488,1313
97sec,491,1329
97sec,487,1383
97sec,486,1395
97sec,480,1387
97sec,476,1386
97sec,475,1387
97sec,467,1390
97sec,471,1379
97sec,469,1378
97sec,468,1375
97sec,468,1373
97sec,466,1368
97sec,464,1370
97sec,464,1370
97sec,468,1366
97sec,470,1363
97sec,490,1349
97sec,543,1292
97sec,570,1264
97sec,825,1008
97sec,887,941
97sec,902,921
97sec,951,824
97sec,942,842
97sec,947,827
97sec,936,853
97sec,930,866
97sec,924,872
97sec,913,881
97sec,743,849
97sec,602,826
97sec,549,811
97sec,500,774
97sec,484,763
97sec,485,766
97sec,489,779
97sec,488,767
97sec,487,754
97sec,498,749
97sec,502,748
97sec,535,1029
97sec,538,1150
97sec,535,1221
97sec,536,1241
97sec,537,1254
97sec,538,1267
97sec,537,1351
98sec,538,1358
98sec,538,1360
98sec,511,1320
98sec,509,1309
98sec,514,1310
98sec,511,1305
98sec,514,1312
98sec,523,1334
98sec,522,1327
98sec,511,1326
98sec,499,1362
98sec,481,1388
98sec,476,1396
98sec,489,1035
98sec,471,970
98sec,469,951
98sec,470,952
98sec,469,927
98sec,471,844
