50,short_blink,
78,short_blink,
92,short_blink,
119,short_blink,
159,short_blink,
166,short_blink,
170,short_blink,
180,short_blink,
184,short_blink,
186,short_blink,
320,short_blink,
342,short_blink,
352,short_blink,
363,short_blink,
380,short_blink,
384,short_blink,
388,short_blink,
398,short_blink,
409,short_blink,
413,short_blink,
416,short_blink,
428,short_blink,
432,short_blink,
457,short_blink,
462,short_blink,
472,short_blink,
480,short_blink,
499,short_blink,
505,short_blink,
523,short_blink,
532,short_blink,
547,short_blink,
637,short_blink,
672,short_blink,
683,short_blink,
946,short_blink,
970,short_blink,
1592,short_blink,
5332,short_blink,
5345,short_blink,
5589,short_blink,
5611,short_blink,
5613,short_blink,
5619,short_blink,
6031,short_blink,
6082,short_blink,
6084,short_blink,
6112,short_blink,
6119,short_blink,
6166,short_blink,
6221,short_blink,
6226,short_blink,
6257,short_blink,
6262,short_blink,
6360,short_blink,
6396,short_blink,
6560,short_blink,
6643,short_blink,
6658,short_blink,
6662,short_blink,
6849,short_blink,
6879,short_blink,
6896,short_blink,
6922,short_blink,
6958,short_blink,
6985,short_blink,
7160,short_blink,
7299,short_blink,
7305,short_blink,
7337,short_blink,
7341,short_blink,
7487,short_blink,
7589,short_blink,
7624,short_blink,
7664,short_blink,
7712,short_blink,
7717,short_blink,
7725,short_blink,
7742,short_blink,
7882,short_blink,
7939,short_blink,
7969,short_blink,
8030,short_blink,
8034,short_blink,
8040,short_blink,
8055,short_blink,
8064,short_blink,
8093,short_blink,
8104,short_blink,
8189,short_blink,
8340,short_blink,
8467,short_blink,
8469,short_blink,
8473,short_blink,
8475,short_blink,
8529,short_blink,
8531,short_blink,
8542,short_blink,
8558,short_blink,
8568,short_blink,
8577,short_blink,
9673,short_blink,
9806,short_blink,
10035,short_blink,
10082,short_blink,
10090,short_blink,
10131,short_blink,
10175,short_blink,
10177,short_blink,
10187,short_blink,
10196,short_blink,
10214,short_blink,
10238,short_blink,
10324,short_blink,
10374,short_blink,
10427,short_blink,
10442,short_blink,
10445,short_blink,
10534,short_blink,
10543,short_blink,
10552,short_blink,
11189,short_blink,
11419,short_blink,
11427,short_blink,
11431,short_blink,
