0,long_blink,
33,long_blink,
44,long_blink,
557,long_blink,
620,long_blink,
990,long_blink,
999,long_blink,
1133,long_blink,
1187,long_blink,
1220,long_blink,
1433,long_blink,
1593,long_blink,
1601,long_blink,
1713,long_blink,
1719,long_blink,
1753,long_blink,
2105,long_blink,
2109,long_blink,
2114,long_blink,
2123,long_blink,
